"id";"razao_social";"fantasia";"documento";"telefone";"email";"logo";"apelido";"dominio";"sub_dominio";"cep";"rua";"numero";"complemento";"bairro";"cidade";"estado";"ativo";"id_plano"
1;"ARMAZEM DOS TECIDOS COMERCIO TEXTIL LTDA - ME                                   ";"";"12995409000174";"";"";"";"";"";"";"";"";"";"";"";"";"";t;
2;"TINTAS SANTO ANTONIO                                                            ";"";"43136381000143";"";"";"";"";"";"";"";"";"";"";"";"";"";t;
3;"TOTAL TINTAS LTDA - EPP                                                         ";"";"65777591000153";"";"";"";"";"";"";"";"";"";"";"";"";"";t;
4;"JOAO ANTONIO DE NAPOLES - ME                                                    ";"";"05508214000197";"";"";"";"";"";"";"";"";"";"";"";"";"";f;
5;"CSWIN                                                                           ";"";"              ";"";"";"";"";"";"";"";"";"";"";"";"";"";t;
6;"CAROLINE PAULA KATRI - TINTAS - ME                                              ";"";"25276994000102";"";"";"";"";"";"";"";"";"";"";"";"";"";t;
7;"MEGASOLDA EQUIPAMENTOS E SERVICOS LTDA ME.                                      ";"";"01886153000140";"";"";"";"";"";"";"";"";"";"";"";"";"";f;
8;"ARNALDO BLAKNEY LOPES FILHO - EPP                                               ";"";"26851682000130";"";"";"";"";"";"";"";"";"";"";"";"";"";t;
9;"EMPORIO EUROBRAS COMERCIO TEXTIL LTDA.                                          ";"";"14539502000108";"";"";"";"";"";"";"";"";"";"";"";"";"";t;
10;"RENATO MATTARA NIETO - EPP                                                      ";"";"21228147000103";"";"";"";"";"";"";"";"";"";"";"";"";"";f;
11;"EKO - AR COMERCIO DE REFRIGERACAO LTDA - ME                                     ";"";"15537215000113";"";"";"";"";"";"";"";"";"";"";"";"";"";f;
12;"R. DE F. PIRES DE MORAES TINTAS                                                 ";"";"74631466000121";"";"";"";"";"";"";"";"";"";"";"";"";"";f;
13;"VETRANEVA COMERCIAL LTDA.                                                       ";"";"68910322000101";"";"";"";"";"";"";"";"";"";"";"";"";"";t;
14;"BAZAR DAS TINTAS (BRIGADEIRO)                                                   ";"";"67331538001040";"";"";"";"";"";"";"";"";"";"";"";"";"";t;
15;"CASA DAS ANTENAS TELETRONICA LTDA-EPP                                           ";"";"04323682000124";"";"";"";"";"";"";"";"";"";"";"";"";"";t;
16;"QUALISSEG COMERCIO, CONSULTORIA E TREINAMENTO LTDA.                             ";"";"86720729000158";"";"";"";"";"";"";"";"";"";"";"";"";"";t;
17;"FORTE COMERCIO DE TINTAS LTDA - ME                                              ";"";"10903653000134";"";"";"";"";"";"";"";"";"";"";"";"";"";t;
18;"LB OFICINA E COM DE ACESSORIOS LTDA EPP                                         ";"";"05275378000111";"";"";"";"";"";"";"";"";"";"";"";"";"";t;
19;"SUPORTE COMERCIO DE FERRAGENS LTDA - ME                                         ";"";"14379874000106";"";"";"";"";"";"";"";"";"";"";"";"";"";t;
20;"MULTI TINTAS COMERCIO DE TINTAS LTDA -ME                                        ";"";"22005453000143";"";"";"";"";"";"";"";"";"";"";"";"";"";t;
21;"RECOLAX MADEIRAS E REVESTIMENTOS LTDA.                                          ";"";"59278093000163";"";"";"";"";"";"";"";"";"";"";"";"";"";t;
22;"HUMAITA COMERCIO DE TINTAS, MOVEIS E ACESSORIOS LTDA.                           ";"";"              ";"";"";"";"";"";"";"";"";"";"";"";"";"";t;
23;"ANGELO COMERCIO E DISTRIBUICAO DE EMBALAGENS LTDA - ME                          ";"";"11861123000133";"";"";"";"";"";"";"";"";"";"";"";"";"";t;
24;"NEW COLLORS POA TINTAS LTDA - ME                                                ";"";"11277033000108";"";"";"";"";"";"";"";"";"";"";"";"";"";t;
25;"ELCOR Tintas Ltda.                                                              ";"";"38841730000198";"";"";"";"";"";"";"";"";"";"";"";"";"";t;
26;"CASA DE ARTIGOS RELIGIOSOS MB&MP LTDA                                           ";"";"08452977000151";"";"";"";"";"";"";"";"";"";"";"";"";"";f;
27;"JONACI BRANDAO DA SILVA                                                         ";"";"              ";"";"";"";"";"";"";"";"";"";"";"";"";"";f;
28;"MARGUTTI & JESUS LTDA EPP                                                       ";"";"47831862000120";"";"";"";"";"";"";"";"";"";"";"";"";"";f;
29;"COMERCIO DE TINTAS VENTURA LTDA - ME                                            ";"";"11528513000196";"";"";"";"";"";"";"";"";"";"";"";"";"";f;
30;"TINTAS MONTE SANTO LTDA.                                                        ";"";"03414388000165";"";"";"";"";"";"";"";"";"";"";"";"";"";t;
31;"SALLES COM.TINTAS E IMPERMEAB. EIRELI ME                                        ";"";"67086314000120";"";"";"";"";"";"";"";"";"";"";"";"";"";f;
32;"TOSCANA IMPORTADORA LTDA                                                        ";"";"04961763000150";"";"";"";"";"";"";"";"";"";"";"";"";"";t;
33;"NILTON JOSE DA SILVA COM. ARMARINHOS ME                                         ";"";"24413889000105";"";"";"";"";"";"";"";"";"";"";"";"";"";f;
34;"EDSON KOITI ISHII TINTAS - EPP                                                  ";"";"60119161000120";"";"";"";"";"";"";"";"";"";"";"";"";"";t;
35;"BOBIMIX AQUILES COM. E SER. LTDA - ME                                           ";"";"17327726000136";"";"";"";"";"";"";"";"";"";"";"";"";"";f;
36;"VIVIANE T. SCARTOZZONI DE AZEVEDO - ME                                          ";"";"20167070000146";"";"";"";"";"";"";"";"";"";"";"";"";"";t;
37;"MARCIA FERREIRA DE ARRUDA SILVA - ME                                            ";"";"02026044000116";"";"";"";"";"";"";"";"";"";"";"";"";"";f;
38;"CONQUISTA IND. COM. DE CAIXAS LTDA.                                             ";"";"01828806000135";"";"";"";"";"";"";"";"";"";"";"";"";"";t;
39;"TINTAS A.C.FERNANDES LTDA.                                                      ";"";"02207042000123";"";"";"";"";"";"";"";"";"";"";"";"";"";t;
40;"TUBARAO TINTAS LTDA - ME.                                                       ";"";"18687058000382";"";"";"";"";"";"";"";"";"";"";"";"";"";t;
41;"TRW COMERCIO DE TINTAS LTDA - ME                                                ";"";"19205081000194";"";"";"";"";"";"";"";"";"";"";"";"";"";t;
42;"Itatintas Comercio de Tintas Ltda                                               ";"";"58681719000204";"";"";"";"";"";"";"";"";"";"";"";"";"";t;
43;"JUND CORES COMERCIO DE TINTAS LTDA - EPP                                        ";"";"15491379000238";"";"";"";"";"";"";"";"";"";"";"";"";"";f;
44;"CHIIKO UEHARA - ME                                                              ";"";"00028462000117";"";"";"";"";"";"";"";"";"";"";"";"";"";t;
45;"FESTA CHOPP & CIA                                                               ";"";"04577055000110";"";"";"";"";"";"";"";"";"";"";"";"";"";t;
46;"VIP CORES COMERCIO DE TINTAS LTDA - ME                                          ";"";"05742967000162";"";"";"";"";"";"";"";"";"";"";"";"";"";f;
47;"VIVAL COMERCIO DE TINTAS LTDA.                                                  ";"";"05921801000103";"";"";"";"";"";"";"";"";"";"";"";"";"";t;
48;"SERGIO ROMEIRO DOS SANTOS - ME                                                  ";"";"11550882000185";"";"";"";"";"";"";"";"";"";"";"";"";"";f;
49;"MAXLINE - GRAFICA E PAPELARIA LTDA - EPP                                        ";"";"68070432000102";"";"";"";"";"";"";"";"";"";"";"";"";"";t;
50;"BIG FONTE DAS ESSENCIAS LTDA EPP                                                ";"";"25015019000132";"";"";"";"";"";"";"";"";"";"";"";"";"";f;
51;"MUKI Tintas Ltda.                                                               ";"";"03243400000116";"";"";"";"";"";"";"";"";"";"";"";"";"";t;
52;"DIAS & LAMBIASI Comercio de Tintas Ltda.                                        ";"";"23716184000196";"";"";"";"";"";"";"";"";"";"";"";"";"";t;
53;"NOVA SANTA CRUZ Ltda.                                                           ";"";"52335973000185";"";"";"";"";"";"";"";"";"";"";"";"";"";f;
54;"L&A CORES COMERCIO DE TINTAS LTDA.                                              ";"";"15307504000126";"";"";"";"";"";"";"";"";"";"";"";"";"";f;
55;"CENTRAL DAS CORES COMERCIO DE TINTAS LTDA                                       ";"";"07460989000165";"";"";"";"";"";"";"";"";"";"";"";"";"";t;
56;"EVAL TINTAS LTDA. - ME                                                          ";"";"08714143000258";"";"";"";"";"";"";"";"";"";"";"";"";"";t;
57;"EMIDIO AFONSO DE CARVALHO NETO                                                  ";"";"17293519000108";"";"";"";"";"";"";"";"";"";"";"";"";"";f;
58;"PROTE-HOME SISTEMAS DE SEGURANCA LTDA ME                                        ";"";"02387239000191";"";"";"";"";"";"";"";"";"";"";"";"";"";t;
59;"NOVA ABC PIRAPORINHA                                                            ";"";"              ";"";"";"";"";"";"";"";"";"";"";"";"";"";t;
60;"RAMA COMERCIO DE TINTAS LTDA.                                                   ";"";"66013814000179";"";"";"";"";"";"";"";"";"";"";"";"";"";t;
61;"V. N. SOLUCAO PARA MATERIAIS DE CONSTRUCAO LTDA. - ME                           ";"";"02296679000133";"";"";"";"";"";"";"";"";"";"";"";"";"";t;
62;"ROCHA & SANTOS COMERCIO DE TECIDOS E AVI                                        ";"";"26773889000133";"";"";"";"";"";"";"";"";"";"";"";"";"";t;
63;"COMERCIO DE TINTAS SAMIA LTDA - ME                                              ";"";"69229789000153";"";"";"";"";"";"";"";"";"";"";"";"";"";f;
64;"GUILHERME VENDRAME TINTAS EPP.                                                  ";"";"07699326000289";"";"";"";"";"";"";"";"";"";"";"";"";"";t;
65;"INDEPENDENCIA Comercio de Tintas Ltda - ME.                                     ";"";"08725035000108";"";"";"";"";"";"";"";"";"";"";"";"";"";t;
66;"GELTEC COMERCIAL ELETRONICA LTDA. - ME                                          ";"";"02850632000170";"";"";"";"";"";"";"";"";"";"";"";"";"";t;
67;"TIAGO LEANDRO PEREIRA - ME                                                      ";"";"09267422000100";"";"";"";"";"";"";"";"";"";"";"";"";"";t;
68;"A MAIS INDUSTRIA E COMERCIO DE PRODUTOS PROMOCIONAIS LTDA                       ";"";"07091385000199";"";"";"";"";"";"";"";"";"";"";"";"";"";f;
69;"LOJA DAS FITAS E ACESSORIOS LTDA - ME FILIAL 02                                 ";"";"20058757000224";"";"";"";"";"";"";"";"";"";"";"";"";"";f;
70;"COMERCIO DE TINTAS MEGA CORES LTDA.                                             ";"";"12455015000123";"";"";"";"";"";"";"";"";"";"";"";"";"";f;
71;"MANOEL AUGUSTO PACITTI - ME                                                     ";"";"27159499000130";"";"";"";"";"";"";"";"";"";"";"";"";"";f;
72;"PIZZARIA E PASTELARIA CASTELO AZUL LTDA EPP                                     ";"";"04643450000153";"";"";"";"";"";"";"";"";"";"";"";"";"";f;
73;"MAKTUB COMERCIO DE TINTAS LTDA - ME                                             ";"";"07087610000113";"";"";"";"";"";"";"";"";"";"";"";"";"";t;
74;"FABIO RESENDE LOPES ME                                                          ";"";"14551886000176";"";"";"";"";"";"";"";"";"";"";"";"";"";t;
75;"COML. SAO JOSE TINTAS VERNIZES LTDA.                                            ";"";"53270385000173";"";"";"";"";"";"";"";"";"";"";"";"";"";t;
76;"MR. FIT COMERCIAL EIRELI - ME                                                   ";"";"26900469000170";"";"";"";"";"";"";"";"";"";"";"";"";"";t;
77;"TINTAS MIL E UMA CORES LTDA.                                                    ";"";"61539136000169";"";"";"";"";"";"";"";"";"";"";"";"";"";t;
78;"R.G. ABREU - ME                                                                 ";"";"26569477000186";"";"";"";"";"";"";"";"";"";"";"";"";"";f;
79;"RODALLAS Comercio de Rodas Ltda.                                                ";"";"57206443000312";"";"";"";"";"";"";"";"";"";"";"";"";"";f;
80;"O VALE AMAZONICO ARTEFATOS DE BORRACHA LTDA- EPP                                ";"";"60878345000174";"";"";"";"";"";"";"";"";"";"";"";"";"";t;
81;"RIBEIRO & SANTOS COMERCIO VAREJISTA DE TINTAS LTDA. - EPP                       ";"";"04959469000103";"";"";"";"";"";"";"";"";"";"";"";"";"";f;
82;"Bazar das Tintas (Morumbi)                                                      ";"";"67331538000311";"";"";"";"";"";"";"";"";"";"";"";"";"";t;
83;"EVERTON VIEIRA DE SOUZA CONSTRUCAO - EPP                                        ";"";"07806067000167";"";"";"";"";"";"";"";"";"";"";"";"";"";f;
84;"M CORDIO CERA ME                                                                ";"";"06126575000131";"";"";"";"";"";"";"";"";"";"";"";"";"";f;
85;"CONTMAX EMPRESARIAL S/C LTDA                                                    ";"";"              ";"";"";"";"";"";"";"";"";"";"";"";"";"";t;
86;"CASA DA BORRA COMERCIO DE TINTAS LTDA.                                          ";"";"62249990000153";"";"";"";"";"";"";"";"";"";"";"";"";"";t;
87;"A.FAGUNDES DOS SANTOS CONSTRUCOES ME                                            ";"";"11239006000132";"";"";"";"";"";"";"";"";"";"";"";"";"";t;
88;"COR-PORA COMERCIO DE TINTAS LTDA - ME                                           ";"";"06968684000104";"";"";"";"";"";"";"";"";"";"";"";"";"";f;
89;"GRATO COMERCIO E REPRESENTACOES COMERCIAIS LTDA.                                ";"";"10644800000107";"";"";"";"";"";"";"";"";"";"";"";"";"";f;
90;"MG APICELLA DISTRIBUIDORA LTDA - EPP                                            ";"";"17416107000118";"";"";"";"";"";"";"";"";"";"";"";"";"";t;
91;"MURILOS RESTAURANTE LTDA ME.                                                    ";"";"02398958000108";"";"";"";"";"";"";"";"";"";"";"";"";"";t;
92;"ARTE E TEMPERO SBC LANCHES E REFEICOES LTDA ME                                  ";"";"11221455000153";"";"";"";"";"";"";"";"";"";"";"";"";"";f;
93;"BAAKLINI COM FERRAG E FERRAMENTAS LTDA - ME                                     ";"";"11069096000160";"";"";"";"";"";"";"";"";"";"";"";"";"";t;
94;"CONSTRUDEC2 COMERCIO DE MATERIAIS DE CONSTRUCAO EIRELI - ME.                    ";"";"              ";"";"";"";"";"";"";"";"";"";"";"";"";"";f;
95;"LOPES COLOR COMERCIO DE TINTAS LTDA EPP                                         ";"";"27012923000110";"";"";"";"";"";"";"";"";"";"";"";"";"";t;
96;"FAM DO BRASIL DISTRIBUIDORA DE TINTAS LTDA - ME                                 ";"";"44157816000107";"";"";"";"";"";"";"";"";"";"";"";"";"";f;
97;"MEDINA TINTAS LTDA. - ME                                                        ";"";"00751975000151";"";"";"";"";"";"";"";"";"";"";"";"";"";t;
98;"Geral Comercio de Tintas e Vernizes Ltda.                                       ";"";"65532228000178";"";"";"";"";"";"";"";"";"";"";"";"";"";t;
99;"HR RODAS COMERCIO DE AUTO PECAS LTDA                                            ";"";"67346882000384";"";"";"";"";"";"";"";"";"";"";"";"";"";f;
100;"THAIS MENEGHELLO AZEVEDO MACEDO - ME                                            ";"";"16730570000177";"";"";"";"";"";"";"";"";"";"";"";"";"";f;
101;"ESCUDERO TINTAS LTDA.                                                           ";"";"67870683000109";"";"";"";"";"";"";"";"";"";"";"";"";"";t;
102;"NP FERRAGENS E MADEIRAS LTDA - ME                                               ";"";"26145095000125";"";"";"";"";"";"";"";"";"";"";"";"";"";f;
103;"LANCHONETE CLUBE DA FELICIDADE LTDA.                                            ";"";"21021257000108";"";"";"";"";"";"";"";"";"";"";"";"";"";f;
104;"R.E.L. COMERCIO DE TINTAS LTDA.                                                 ";"";"05254211000174";"";"";"";"";"";"";"";"";"";"";"";"";"";t;
105;"EVANDRO ANTUNES SOROCABA - ME.                                                  ";"";"08945748000179";"";"";"";"";"";"";"";"";"";"";"";"";"";t;
106;"R.A. REVESTIMENTOS AUTOMOTIVOS LTDA.                                            ";"";"04660393000110";"";"";"";"";"";"";"";"";"";"";"";"";"";t;
107;"LISTRA COMERCIO DE TINTAS LTDA - ME                                             ";"";"68134519000104";"";"";"";"";"";"";"";"";"";"";"";"";"";t;
108;"INOVACAO FERRAGENS E MADEIRAS LTDA (MATRIZ)                                     ";"";"09464908000120";"";"";"";"";"";"";"";"";"";"";"";"";"";t;
109;"TOPVINIL IMP.COM.SER.DE COBERTURAS LTDA.                                        ";"";"02679494000108";"";"";"";"";"";"";"";"";"";"";"";"";"";t;
110;"METTAL ACO COMERCIO DE FERRO E ACO LTDA - EPP                                   ";"";"16518272000118";"";"";"";"";"";"";"";"";"";"";"";"";"";f;
111;"Bazar das Tintas (Itaim)                                                        ";"";"67331538000583";"";"";"";"";"";"";"";"";"";"";"";"";"";t;
112;"TIJOPARK COMERCIO DE PRODUTOS CERAMICOS LTDA. ME                                ";"";"07618034000193";"";"";"";"";"";"";"";"";"";"";"";"";"";t;
113;"MANUEL JOSE PIRES - ME.                                                         ";"";"03882077000120";"";"";"";"";"";"";"";"";"";"";"";"";"";f;
114;"HAMADA PRODUTOS NATURAIS LTDA - EPP                                             ";"";"17021788000115";"";"";"";"";"";"";"";"";"";"";"";"";"";t;
115;"GP GAMBELONI & PACHECO COM. TINTAS LTDA.                                        ";"";"02977772000103";"";"";"";"";"";"";"";"";"";"";"";"";"";t;
116;"QUITANDA ALPHAVILLE RESTAURANTE LTDA ME                                         ";"";"26361324000149";"";"";"";"";"";"";"";"";"";"";"";"";"";f;
117;"PONTO DAS TINTAS                                                                ";"";"09033043000148";"";"";"";"";"";"";"";"";"";"";"";"";"";t;
118;"ROBERTA L. RODRIGUES COM. MAT. CONS. ME                                         ";"";"09389747000158";"";"";"";"";"";"";"";"";"";"";"";"";"";f;
119;"HIROSHI TAKAGI RESTAURANTE - EPP                                                ";"";"20839275000120";"";"";"";"";"";"";"";"";"";"";"";"";"";f;
120;"REI DAS TINTAS LTDA.                                                            ";"";"05378324000181";"";"";"";"";"";"";"";"";"";"";"";"";"";t;
121;"ELETRICA COMERCIAL SUL LTDA.                                                    ";"";"07586244000147";"";"";"";"";"";"";"";"";"";"";"";"";"";t;
122;"ALBERT KATRI EIRELI - EPP.                                                      ";"";"26408752000180";"";"";"";"";"";"";"";"";"";"";"";"";"";t;
123;"LEXOR BITTAR Comercial Ltda.                                                    ";"";"02405221000175";"";"";"";"";"";"";"";"";"";"";"";"";"";t;
124;"HELLUS COMERCIO DE TINTAS E PINTURA LTDA - ME                                   ";"";"23607011000130";"";"";"";"";"";"";"";"";"";"";"";"";"";f;
125;"RT2 COMERCIO DE TINTAS LTDA. - ME.                                              ";"";"19525851000186";"";"";"";"";"";"";"";"";"";"";"";"";"";t;
126;"MARIA ROSA DOS ANJOS - ME                                                       ";"";"12655206000139";"";"";"";"";"";"";"";"";"";"";"";"";"";f;
127;"JEQUITIBA COMERCIO DE MATERIAIS PARA CONSTRUCAO EIRELI - ME                     ";"";"14168951000189";"";"";"";"";"";"";"";"";"";"";"";"";"";t;
128;"ANA MARIA QUADRADO DE ALMEIDA - EPP                                             ";"";"11579807000147";"";"";"";"";"";"";"";"";"";"";"";"";"";t;
129;"CS COMERCIO DE TINTAS EIRELI - ME.                                              ";"";"26396866000157";"";"";"";"";"";"";"";"";"";"";"";"";"";t;
130;"INOVACAO FERRAGENS E MADEIRAS LTDA (FILIAL-2)                                   ";"";"09464908000392";"";"";"";"";"";"";"";"";"";"";"";"";"";t;
131;"HORIZONTE VERNIZES E TINTAS COMERCIAL LTDA.                                     ";"";"11179192000161";"";"";"";"";"";"";"";"";"";"";"";"";"";t;
132;"JOSE PACIFICO CAROLA COMERCIO TINTA - ME                                        ";"";"12234471000143";"";"";"";"";"";"";"";"";"";"";"";"";"";t;
133;"ZZINI ELETRICA HIDR FERRAGENS LTDA ME                                           ";"";"09431967000100";"";"";"";"";"";"";"";"";"";"";"";"";"";t;
134;"TMC Texturas Madeiras e Cores Ltda. - ME.                                       ";"";"08966758000190";"";"";"";"";"";"";"";"";"";"";"";"";"";t;
135;"RUBENS SARAFIAN LAMINADOS EPP.                                                  ";"";"07158095000115";"";"";"";"";"";"";"";"";"";"";"";"";"";t;
136;"Tintas Estancia das Cores Ltda.                                                 ";"";"03665112000150";"";"";"";"";"";"";"";"";"";"";"";"";"";t;
137;"USETINTAS COMERCIO DE TINTAS E ACESSORIOS LTDA.                                 ";"";"05841962000197";"";"";"";"";"";"";"";"";"";"";"";"";"";t;
138;"MITEV - CASA DAS TINTAS LTDA-ME                                                 ";"";"15302365000148";"";"";"";"";"";"";"";"";"";"";"";"";"";t;
139;"EVAL Com. de Tintas Ltda. - ME.                                                 ";"";"08714143000177";"";"";"";"";"";"";"";"";"";"";"";"";"";t;
140;"AGNALDO TIEN KUO CHANG - EPP                                                    ";"";"00507843000189";"";"";"";"";"";"";"";"";"";"";"";"";"";t;
141;"F.E TEIXEIRA RESTAURANTE - EPP                                                  ";"";"21872810000108";"";"";"";"";"";"";"";"";"";"";"";"";"";f;
142;"FRAMA Comercio de Materiais p/ Construcao Ltda.                                 ";"";"04264433000105";"";"";"";"";"";"";"";"";"";"";"";"";"";t;
143;"LEOCI COMERCIO DE TINTAS LTDA.                                                  ";"";"62773114000121";"";"";"";"";"";"";"";"";"";"";"";"";"";t;
144;"PRUDENCIA Com Pecas e Servicos Automotivos Ltda.                                ";"";"              ";"";"";"";"";"";"";"";"";"";"";"";"";"";t;
145;"EVIN TINTAS LTDA - ME                                                           ";"";"15776343000110";"";"";"";"";"";"";"";"";"";"";"";"";"";f;
146;"Comercial de Tintas COLUMBIA Ltda.                                              ";"";"46090940000110";"";"";"";"";"";"";"";"";"";"";"";"";"";t;
147;"RINAPAR PARAFUSOS E FERRAMENTAS LTDA EPP.                                       ";"";"05152875000122";"";"";"";"";"";"";"";"";"";"";"";"";"";t;
148;"SOARES E COSTA MATERIAIS DE CONSTRUCAO LTDA - EPP                               ";"";"26122004000136";"";"";"";"";"";"";"";"";"";"";"";"";"";f;
149;"SCOBE - Comercio e Distribuicao de Tintas LTDA - ME.                            ";"";"07765848000150";"";"";"";"";"";"";"";"";"";"";"";"";"";f;
150;"MAIS LOTES COM. DE TECIDOS EM GERAL LTDA - EPP                                  ";"";"26529601000180";"";"";"";"";"";"";"";"";"";"";"";"";"";f;
151;"ELMAR COMERCIO DE TINTAS LTDA. - ME                                             ";"";"04147102000195";"";"";"";"";"";"";"";"";"";"";"";"";"";t;
152;"FUTURE TINTAS LTDA.                                                             ";"";"07447368000141";"";"";"";"";"";"";"";"";"";"";"";"";"";f;
153;"C.B. ARTIGOS NAUTICOS LTDA - ME                                                 ";"";"00284531000153";"";"";"";"";"";"";"";"";"";"";"";"";"";f;
154;"OUSADIA DESIGN COMERCIO DE MOVEIS LTDA ME                                       ";"";"01185840000139";"";"";"";"";"";"";"";"";"";"";"";"";"";t;
155;"CASA SHOW TINTAS E FERRAGENS LTDA - ME                                          ";"";"05105430000191";"";"";"";"";"";"";"";"";"";"";"";"";"";t;
156;"MEGA CORES BELVAL LTDA - ME                                                     ";"";"19155447000168";"";"";"";"";"";"";"";"";"";"";"";"";"";t;
157;"AMARELINHA TINTAS LTDA                                                          ";"";"67487595000122";"";"";"";"";"";"";"";"";"";"";"";"";"";t;
158;"A MAIS AUTO COMERCIO E SERVICOS AUTOMOTIVOS LTDA.                               ";"";"10881006000250";"";"";"";"";"";"";"";"";"";"";"";"";"";f;
159;"ABD Comercio de Ferro e Aco Ltda.                                               ";"";"02647425000112";"";"";"";"";"";"";"";"";"";"";"";"";"";t;
160;"ALCIVAN TINTAS E CONSTRUCOES LTDA - ME                                          ";"";"17210955000176";"";"";"";"";"";"";"";"";"";"";"";"";"";t;
161;"DISTRIBUIDORA DE T.N.T ABUDE LTDA                                               ";"";"26050706000151";"";"";"";"";"";"";"";"";"";"";"";"";"";t;
162;"CLEUSA INACIO BUENO TINTAS ME.                                                  ";"";"08754346000197";"";"";"";"";"";"";"";"";"";"";"";"";"";t;
163;"PLASTICOS ABUDE LTDA                                                            ";"";"18057102000109";"";"";"";"";"";"";"";"";"";"";"";"";"";t;
164;"DISTRIBUIDORA DE PLASTICOS ABUDE LTDA.                                          ";"";"05363968000104";"";"";"";"";"";"";"";"";"";"";"";"";"";t;
165;"COMERCIAL DE TINTAS IRECE LTDA.                                                 ";"";"13195907000132";"";"";"";"";"";"";"";"";"";"";"";"";"";t;
166;"GOLDEN TINTAS, PIGMENTOS E ACES.P/PINTURA EM GERAL LTDA - ME                    ";"";"18897560000156";"";"";"";"";"";"";"";"";"";"";"";"";"";t;
167;"INDUSTRIA MECANICA KIBA LTDA - EPP                                              ";"";"50187822000100";"";"";"";"";"";"";"";"";"";"";"";"";"";f;
168;"BERGAMIN COMERCIO DE MATERIAIS PARA CONSTRUCAO LTDA - ME                        ";"";"02821828000217";"";"";"";"";"";"";"";"";"";"";"";"";"";t;
169;"Construguedes Com. Mats. P/ Constr. Ltda. ME                                    ";"";"00754240000181";"";"";"";"";"";"";"";"";"";"";"";"";"";t;
170;"MAIA MOREIRA Comercio de Tintas Ltda.                                           ";"";"00002363000166";"";"";"";"";"";"";"";"";"";"";"";"";"";t;
171;"M RAE CENTER COMERCIO DE TINTAS LTDA - ME                                       ";"";"04506308000164";"";"";"";"";"";"";"";"";"";"";"";"";"";t;
172;"TRES VE Comercio de Tintas Ltda.                                                ";"";"05921801000375";"";"";"";"";"";"";"";"";"";"";"";"";"";t;
173;"SINTETICOS PROENCA INDUSTRIA E COMERCIO LTDA. EPP                               ";"";"09561708000196";"";"";"";"";"";"";"";"";"";"";"";"";"";t;
174;"O MUNDO MAGICO DAS TINTAS LTDA.                                                 ";"";"04234606000142";"";"";"";"";"";"";"";"";"";"";"";"";"";f;
175;"A.N. Comercio de Tintas Automotivas e Imobiliarias Ltda.                        ";"";"05676172000101";"";"";"";"";"";"";"";"";"";"";"";"";"";t;
176;"CASA DE TINTAS MAGOS BARUERI LTDA ME.                                           ";"";"74282179000153";"";"";"";"";"";"";"";"";"";"";"";"";"";t;
177;"CLAMARY COM. E INSTALACAO DE EQUIPTOS. IND. LTDA. EPP                           ";"";"11858752000104";"";"";"";"";"";"";"";"";"";"";"";"";"";t;
178;"DIMA Tintas & Vernizes Ltda.                                                    ";"";"43505957000100";"";"";"";"";"";"";"";"";"";"";"";"";"";t;
179;"Moza Comercio de Tintas Ltda.                                                   ";"";"08096938000169";"";"";"";"";"";"";"";"";"";"";"";"";"";t;
180;"BARUEL MATERIAL DE CONSTRUCAO E UTILIDADES LTDA - ME                            ";"";"17229573000194";"";"";"";"";"";"";"";"";"";"";"";"";"";t;
181;"Embalagens VICTOR Ltda.                                                         ";"";"02018546000103";"";"";"";"";"";"";"";"";"";"";"";"";"";t;
182;"NOU COLORS DISTR. DE TINTAS EIRELI EPP                                          ";"";"26370828000125";"";"";"";"";"";"";"";"";"";"";"";"";"";t;
183;"JUND CORES COMERCIO DE TINTAS LTDA - EPP.                                       ";"";"15491379000157";"";"";"";"";"";"";"";"";"";"";"";"";"";t;
184;"TIMEPLAST - IND. E COM. DE PLASTICOS INJETADOS LTDA - ME                        ";"";"14265010000163";"";"";"";"";"";"";"";"";"";"";"";"";"";f;
185;"CIRINO & SAMARA COM. DE MAT. P/ CONST. LTDA                                     ";"";"03340442000175";"";"";"";"";"";"";"";"";"";"";"";"";"";t;
186;"TURBO CENTER COMERCIAL LTDA.                                                    ";"";"44156925000100";"";"";"";"";"";"";"";"";"";"";"";"";"";f;
187;"ACEFER FERRAMENTAS E TINTAS LTDA                                                ";"";"69144806000400";"";"";"";"";"";"";"";"";"";"";"";"";"";t;
188;"CASA SANTOS A. L. MATERIAIS PARA CONSTRUCAO EIRELI - EPP                        ";"";"02296670000122";"";"";"";"";"";"";"";"";"";"";"";"";"";t;
189;"CLEMATIL Comercio de Tintas Ltda-ME.                                            ";"";"65468795000102";"";"";"";"";"";"";"";"";"";"";"";"";"";t;
190;"CORART SHOPPING DO PINTOR LTDA. - EPP                                           ";"";"04884908000166";"";"";"";"";"";"";"";"";"";"";"";"";"";f;
191;"ELETROCOMPO COMPONENTES ELETRONICOS                                             ";"";"02784340000186";"";"";"";"";"";"";"";"";"";"";"";"";"";t;
192;"CCY Comercio de Tintas e Vernizes Ltda.                                         ";"";"46066601000106";"";"";"";"";"";"";"";"";"";"";"";"";"";t;
193;"DEPOSITO DE MAT. DE CONST. COMERCIAL SAO LAZARO LTDA - ME                       ";"";"12788032000182";"";"";"";"";"";"";"";"";"";"";"";"";"";t;
194;"CLARA COR COMERCIO DE TINTAS -ME                                                ";"";"21179010000106";"";"";"";"";"";"";"";"";"";"";"";"";"";t;
195;"COMERCIAL ENOVA LTDA.                                                           ";"";"              ";"";"";"";"";"";"";"";"";"";"";"";"";"";f;
196;"R S TINTAS E SERVICOS LTDA. - ME                                                ";"";"01427709000130";"";"";"";"";"";"";"";"";"";"";"";"";"";f;
197;"ESCUDERO TINTAS LTDA. (Filial)                                                  ";"";"67870683000290";"";"";"";"";"";"";"";"";"";"";"";"";"";t;
198;"EDCASTRO - MATERIAIS PARA CONSTRUCAO LTDA - EPP                                 ";"";"21967742000160";"";"";"";"";"";"";"";"";"";"";"";"";"";t;
199;"MERCADO SABELA LTDA ME                                                          ";"";"08487899000120";"";"";"";"";"";"";"";"";"";"";"";"";"";f;
200;"Comercio de Tintas e Ferragens A.E.CARVALHO Ltda.                               ";"";"47500251000107";"";"";"";"";"";"";"";"";"";"";"";"";"";f;
201;"CEMAFER Comercio de Produtos p/ Construcao Ltda. - ME                           ";"";"04293672000193";"";"";"";"";"";"";"";"";"";"";"";"";"";t;
202;"F1 343 COMERCIO DE TINTAS LTDA                                                  ";"";"07509511000182";"";"";"";"";"";"";"";"";"";"";"";"";"";t;
203;"T M A DE MORAES COMERCIAL - ME                                                  ";"";"15038740000275";"";"";"";"";"";"";"";"";"";"";"";"";"";f;
204;"THONY PRINT EDITORA GRAFICA LTDA - ME                                           ";"";"14274819000151";"";"";"";"";"";"";"";"";"";"";"";"";"";t;
205;"PANCATTAWA COM.DE MAT. P/CONST. LTDA EPP                                        ";"";"02980862000153";"";"";"";"";"";"";"";"";"";"";"";"";"";t;
206;"BARRELLA VALINO CIA LTDA                                                        ";"";"51480259000118";"";"";"";"";"";"";"";"";"";"";"";"";"";t;
207;"TINTAS CENTER COLOR COMERCIO LTDA - ME                                          ";"";"08685308000120";"";"";"";"";"";"";"";"";"";"";"";"";"";t;
208;"MENESIA MARIA ZACARIAS SANTOS - ME                                              ";"";"07413473000160";"";"";"";"";"";"";"";"";"";"";"";"";"";f;
209;"COMERCIAL JUREIA DE TINTAS LTDA. - ME                                           ";"";"01036220000138";"";"";"";"";"";"";"";"";"";"";"";"";"";t;
210;"COPAIBA COMERCIO DE TINTAS LTDA-ME                                              ";"";"06881434000124";"";"";"";"";"";"";"";"";"";"";"";"";"";t;
211;"MZ COMERCIO DE TINTAS LTDA                                                      ";"";"21094851000110";"";"";"";"";"";"";"";"";"";"";"";"";"";f;
212;"Tintas e Mats. de Construcao Pamplona Ltda.                                     ";"";"04452302000151";"";"";"";"";"";"";"";"";"";"";"";"";"";t;
213;"EDU TINTAS EIRELI - EPP                                                         ";"";"20888660000168";"";"";"";"";"";"";"";"";"";"";"";"";"";t;
214;"COMERCIAL IPIRANGA DE TINTAS LTDA - FILIAL 03                                   ";"";"              ";"";"";"";"";"";"";"";"";"";"";"";"";"";t;
215;"MFA MATERIAIS PARA CONSTRUCAO LTDA - ME                                         ";"";"15604914000139";"";"";"";"";"";"";"";"";"";"";"";"";"";f;
216;"NEW COLLORS ITAQUA TINTAS LTDA - ME                                             ";"";"13305666000108";"";"";"";"";"";"";"";"";"";"";"";"";"";t;
217;"HARLEN RESENDE LOPES ME                                                         ";"";"18199834000133";"";"";"";"";"";"";"";"";"";"";"";"";"";t;
218;"RAUL INDUSTRIA E COMERCIO LTDA - ME                                             ";"";"66528134000198";"";"";"";"";"";"";"";"";"";"";"";"";"";f;
219;"C.R.C. TEIXEIRA MATERIAIS DE CONSTRUCAO - ME                                    ";"";"21705798000147";"";"";"";"";"";"";"";"";"";"";"";"";"";t;
220;"BRITO E OLIVEIRA LTDA. - FILIAL 02                                              ";"";"              ";"";"";"";"";"";"";"";"";"";"";"";"";"";t;
221;"BARETAMA Mats. p/ Constr. Ltda.                                                 ";"";"03895655000163";"";"";"";"";"";"";"";"";"";"";"";"";"";t;
222;"MAXIMA COR COMERCIO DE TINTAS LTDA - ME                                         ";"";"14711218000169";"";"";"";"";"";"";"";"";"";"";"";"";"";t;
223;"CSLOJA.NET                                                                      ";"";"              ";"";"";"";"";"";"";"";"";"";"";"";"";"";t;
224;"Bazar das Tintas Ltda.                                                          ";"";"61329579000125";"";"";"";"";"";"";"";"";"";"";"";"";"";t;
225;"REIS DISTRIBUIDORA TINTAS LTDA                                                  ";"";"85018349000103";"";"";"";"";"";"";"";"";"";"";"";"";"";t;
226;"CLODOALDO & CIA LTDA - DEPOSITO                                                 ";"";"48031843000424";"";"";"";"";"";"";"";"";"";"";"";"";"";t;
227;"ALLWATTS Comercial Eletrica Ltda.                                               ";"";"67044750000136";"";"";"";"";"";"";"";"";"";"";"";"";"";t;
228;"Comercio de Tintas e Ferragens MAESSAKA Ltda.                                   ";"";"61782397000105";"";"";"";"";"";"";"";"";"";"";"";"";"";f;
229;"CANTO DO ENCANTO BIJOUX LTDA. - ME                                              ";"";"03659474000138";"";"";"";"";"";"";"";"";"";"";"";"";"";t;
230;"FREE COLOR TINTAS LTDA - FILIAL II                                              ";"";"07869386000200";"";"";"";"";"";"";"";"";"";"";"";"";"";f;
231;"M.M.B. COMERCIO DE TINTAS LTDA. - ME                                            ";"";"69981448000177";"";"";"";"";"";"";"";"";"";"";"";"";"";t;
232;"FREMADE COMERCIO DE MADEIRAS LTDA.                                              ";"";"58783721000103";"";"";"";"";"";"";"";"";"";"";"";"";"";t;
233;"MR COMERCIO E SERVICOS DE TINTAS LTDA ME                                        ";"";"21010904000178";"";"";"";"";"";"";"";"";"";"";"";"";"";t;
234;"COMERCIAL IPIRANGA DE TINTAS LTDA - FILIAL 04                                   ";"";"09440709000344";"";"";"";"";"";"";"";"";"";"";"";"";"";t;
235;"NOVA IMPERCON IMPERMEABILIZACOES E CONSTRUCOES LTDA                             ";"";"02268416000200";"";"";"";"";"";"";"";"";"";"";"";"";"";t;
236;"TINTOLANDIA TAUBATE                                                             ";"";"64874084000175";"";"";"";"";"";"";"";"";"";"";"";"";"";f;
237;"TRIUNFO MATERIAIS P/CONSTRUCAO LTDA.                                            ";"";"60415668000121";"";"";"";"";"";"";"";"";"";"";"";"";"";t;
238;"AKG CENTER COMERCIO LTDA. - ME                                                  ";"";"10479795000116";"";"";"";"";"";"";"";"";"";"";"";"";"";f;
239;"REAL COR TINTAS                                                                 ";"";"00916749000183";"";"";"";"";"";"";"";"";"";"";"";"";"";t;
240;"AMELIA WATANABE - ME                                                            ";"";"96235346000148";"";"";"";"";"";"";"";"";"";"";"";"";"";t;
241;"CENTRAL DAS TINTAS Ltda.                                                        ";"";"38990644000147";"";"";"";"";"";"";"";"";"";"";"";"";"";t;
242;"BRAS LEO COM. DE ARTIGOS P/ BOLSAS E TAP. E DEC. LTDA                           ";"";"17882015000123";"";"";"";"";"";"";"";"";"";"";"";"";"";t;
243;"PORAO DAS TINTAS COMERCIAL LTDA. - EPP                                          ";"";"02002959000191";"";"";"";"";"";"";"";"";"";"";"";"";"";t;
244;"CORART SHOPPING DO PINTOR EIRELI - EPP                                          ";"";"04884908000247";"";"";"";"";"";"";"";"";"";"";"";"";"";f;
245;"ADRIANA RESENDE LOPES - ME.                                                     ";"";"02521644000150";"";"";"";"";"";"";"";"";"";"";"";"";"";t;
246;"CHAMA CORES COMERCIAL DE TINTAS LTDA - EPP                                      ";"";"24727926000141";"";"";"";"";"";"";"";"";"";"";"";"";"";f;
247;"CIOLI Comercio de Tintas Ltda.                                                  ";"";"52174950000136";"";"";"";"";"";"";"";"";"";"";"";"";"";t;
248;"MUNDO DAS CORES TINTAS E MAT CONST LTDA                                         ";"";"01579956000152";"";"";"";"";"";"";"";"";"";"";"";"";"";t;
249;"GEPAL TINTAS LTDA.                                                              ";"";"65879009000160";"";"";"";"";"";"";"";"";"";"";"";"";"";t;
250;"TINTAS LAR & AUTO LTDA.                                                         ";"";"64070113000146";"";"";"";"";"";"";"";"";"";"";"";"";"";t;
251;"D SAMARA COMERCIO E REPRESENTACOES LTDA                                         ";"";"01386461000107";"";"";"";"";"";"";"";"";"";"";"";"";"";t;
252;"RIZATO & SANTA CHIARA LTDA. - ME                                                ";"";"07647906000141";"";"";"";"";"";"";"";"";"";"";"";"";"";t;
253;"H.D.C MATERIAIS PARA CONSTRUCOES LTDA EPP                                       ";"";"19842256000174";"";"";"";"";"";"";"";"";"";"";"";"";"";f;
254;"MKAR COMERCIO DE PECAS E ACESSORIOS AUTOMOTIVOS LTDA-ME.                        ";"";"00600145000123";"";"";"";"";"";"";"";"";"";"";"";"";"";t;
255;"MISTER FIT COMERCIAL LTDA ME.                                                   ";"";"21941702000140";"";"";"";"";"";"";"";"";"";"";"";"";"";f;
256;"T M A DE MORAES BICICLETAS - ME                                                 ";"";"15038740000194";"";"";"";"";"";"";"";"";"";"";"";"";"";t;
257;"PLASTLOTE COMERCIAL TEXTIL LTDA                                                 ";"";"08872134000104";"";"";"";"";"";"";"";"";"";"";"";"";"";t;
258;"AUDICOR COMERCIO DE TINTAS LTDA.                                                ";"";"08839968000118";"";"";"";"";"";"";"";"";"";"";"";"";"";f;
259;"DISTRIBUIDORA CURSINO                                                           ";"";"58546565000159";"";"";"";"";"";"";"";"";"";"";"";"";"";f;
260;"NOEL MACIEL DE GOIS TINTAS - ME                                                 ";"";"20315562000131";"";"";"";"";"";"";"";"";"";"";"";"";"";t;
261;"ROSA DE SARON COM.VAR. ESSENCIAS LTDA ME                                        ";"";"13209734000127";"";"";"";"";"";"";"";"";"";"";"";"";"";f;
262;"COMERCIAL ELETRICA BIOSFERA LTDA-ME                                             ";"";"18811319000162";"";"";"";"";"";"";"";"";"";"";"";"";"";t;
263;"FRATOM COMERCIO DE TINTAS LTDA - ME                                             ";"";"15237477000162";"";"";"";"";"";"";"";"";"";"";"";"";"";f;
264;"N.K.N. Tintas Ltda.                                                             ";"";"04199558000107";"";"";"";"";"";"";"";"";"";"";"";"";"";t;
265;"NOVA OPCAO MATERIAIS PARA CONSTRUCAO                                            ";"";"18386707000143";"";"";"";"";"";"";"";"";"";"";"";"";"";t;
266;"MATSUMOTO COMERCIO DE TINTAS LTDA.                                              ";"";"71655377000127";"";"";"";"";"";"";"";"";"";"";"";"";"";f;
267;"TINTAS KINA SAN LTDA.                                                           ";"";"00234731000100";"";"";"";"";"";"";"";"";"";"";"";"";"";t;
268;"SOLUCAO CORREIA E ACESSORIOS INDUSTRIAIS LTDA.                                  ";"";"02035124000138";"";"";"";"";"";"";"";"";"";"";"";"";"";t;
269;"AMAZONAS MATERIAS P/ CONSTRUCAO LTDA                                            ";"";"08853763000197";"";"";"";"";"";"";"";"";"";"";"";"";"";t;
270;"CARVALHO RODRIGUES LIMA COM. TINTAS LTDA - ME                                   ";"";"08983222000264";"";"";"";"";"";"";"";"";"";"";"";"";"";t;
271;"R.S. TINTAS E VERNIZES LTDA EPP                                                 ";"";"23447759000109";"";"";"";"";"";"";"";"";"";"";"";"";"";f;
272;"RUAN MARQUES HOLANDA PEREIRA - ME                                               ";"";"22777150000149";"";"";"";"";"";"";"";"";"";"";"";"";"";f;
273;"KING PLAST COMERCIO E DISTRIBUIDORA EIRE                                        ";"";"18618121000167";"";"";"";"";"";"";"";"";"";"";"";"";"";t;
274;"PONTO DAS TINTAS COMERCIAL LTDA - EPP                                           ";"";"09033043000229";"";"";"";"";"";"";"";"";"";"";"";"";"";t;
275;"ARUJA-TINTAS COMERCIO DE TINTAS LTDA EPP                                        ";"";"13405294000183";"";"";"";"";"";"";"";"";"";"";"";"";"";t;
276;"TOTAL TUNING COMERCIO DE TINTAS LTDA.                                           ";"";"08905383000159";"";"";"";"";"";"";"";"";"";"";"";"";"";t;
277;"JOCEMAR MATERIAIS PARA CONSTRUCAO LTDA.                                         ";"";"50918911000170";"";"";"";"";"";"";"";"";"";"";"";"";"";t;
278;"DAMALE Telhas Ltda.                                                             ";"";"65596652000186";"";"";"";"";"";"";"";"";"";"";"";"";"";t;
279;"ONIX COMERCIO DE TINTAS E VERNIZES LTDA.                                        ";"";"13762929000108";"";"";"";"";"";"";"";"";"";"";"";"";"";t;
280;"ARMAZEM BRAS COMERCIAL TEXTIL ME                                                ";"";"22037945000166";"";"";"";"";"";"";"";"";"";"";"";"";"";t;
281;"AUTOMOBILE COMERCIO DE TINTAS LTDA - ME                                         ";"";"05285518000132";"";"";"";"";"";"";"";"";"";"";"";"";"";t;
282;"RSV DISTRIBUIDORA DE PRODUTOS ALIMENTICIOS LTDA.                                ";"";"10717637000157";"";"";"";"";"";"";"";"";"";"";"";"";"";f;
283;"BRITO E OLIVEIRA LTDA.                                                          ";"";"08662851000101";"";"";"";"";"";"";"";"";"";"";"";"";"";t;
284;"DEOCLECIO DANTAS DE ALENCAR NETO ELETRICOS ME.                                  ";"";"02922030000180";"";"";"";"";"";"";"";"";"";"";"";"";"";f;
285;"EUGENIO DE OLIVEIRA COMERCIO DE TINTAS LTDA.                                    ";"";"69177525000101";"";"";"";"";"";"";"";"";"";"";"";"";"";f;
286;"DAVIFERROS COMERCIO DE FERRO ACO LTDA EP                                        ";"";"18410773000101";"";"";"";"";"";"";"";"";"";"";"";"";"";t;
287;"EVERALDO RODRIGUES LOPES                                                        ";"";"              ";"";"";"";"";"";"";"";"";"";"";"";"";"";t;
288;"COML.CARVALHO E FILHOS MATS. P/ CONSTR. LTDA.                                   ";"";"00896442000168";"";"";"";"";"";"";"";"";"";"";"";"";"";t;
289;"PATRICIA MARTINS ESSENCIAS - ME                                                 ";"";"07461543000155";"";"";"";"";"";"";"";"";"";"";"";"";"";f;
290;"DO BRASIL MATERIAIS PARA CONST. LTDA ME                                         ";"";"20871040000116";"";"";"";"";"";"";"";"";"";"";"";"";"";t;
291;"LUIZ APARECIDO CALDEIRA                                                         ";"";"              ";"";"";"";"";"";"";"";"";"";"";"";"";"";t;
292;"MAX SCALLA INFORMATICA LTDA - CAIXA                                             ";"";"              ";"";"";"";"";"";"";"";"";"";"";"";"";"";t;
293;"ISOPAR COMERCIO DE PARAFUSOS E FERRAMENTAS LTDA - ME                            ";"";"44523223000109";"";"";"";"";"";"";"";"";"";"";"";"";"";f;
294;"TINTAS DEPOSITO LTDA.                                                           ";"";"64555725000129";"";"";"";"";"";"";"";"";"";"";"";"";"";t;
295;"RIGEL NATURAL EIRELI - EPP                                                      ";"";"10924740000178";"";"";"";"";"";"";"";"";"";"";"";"";"";t;
296;"FERRAGENS CENTRAL MOGI LTDA - ME.                                               ";"";"12313258000127";"";"";"";"";"";"";"";"";"";"";"";"";"";t;
297;"MANZA SUSHI BAR                                                                 ";"";"20200845000138";"";"";"";"";"";"";"";"";"";"";"";"";"";t;
298;"AO MUNDO DAS TINTAS LTDA.                                                       ";"";"52746088000199";"";"";"";"";"";"";"";"";"";"";"";"";"";t;
299;"MORAIZA MODAS LTDA - ME                                                         ";"";"20974801000165";"";"";"";"";"";"";"";"";"";"";"";"";"";t;
300;"TECNOMAX COMPUTADORES                                                           ";"";"              ";"";"";"";"";"";"";"";"";"";"";"";"";"";t;
301;"NENE TINTAS LTDA.                                                               ";"";"64837982000153";"";"";"";"";"";"";"";"";"";"";"";"";"";t;
302;"AYELLO Comercio de Materiais de Construcao Ltda - EPP                           ";"";"43218445000155";"";"";"";"";"";"";"";"";"";"";"";"";"";t;
303;"COMERCIAL JOSE SILVA LTDA.                                                      ";"";"52451812000157";"";"";"";"";"";"";"";"";"";"";"";"";"";t;
304;"NEW COLLORS SUZANO TINTAS LTDA - ME.                                            ";"";"10471596000161";"";"";"";"";"";"";"";"";"";"";"";"";"";t;
305;"RUI BARBOSA COMERCIO DE TINTAS LTDA - ME                                        ";"";"18196057000173";"";"";"";"";"";"";"";"";"";"";"";"";"";t;
306;"COMERCIAL DE TINTAS LEAL JATOBA LTDA.                                           ";"";"40528218000138";"";"";"";"";"";"";"";"";"";"";"";"";"";t;
307;"B.M COLOR COMERCIO DE TINTAS LTDA. ME                                           ";"";"08823217000103";"";"";"";"";"";"";"";"";"";"";"";"";"";f;
308;"ENPRIN Comercial Ltda.                                                          ";"";"43432665000187";"";"";"";"";"";"";"";"";"";"";"";"";"";t;
309;"TEM TUDO COMERCIO DE TINTAS LTDA - ME                                           ";"";"17480452000110";"";"";"";"";"";"";"";"";"";"";"";"";"";t;
310;"DORIVAL MOURA TINTAS                                                            ";"";"97548211000103";"";"";"";"";"";"";"";"";"";"";"";"";"";t;
311;"IMPERIO DAS TINTAS LTDA.                                                        ";"";"52653599000166";"";"";"";"";"";"";"";"";"";"";"";"";"";t;
312;"HIPER GELO COMERCIO LTDA - ME                                                   ";"";"05262379000121";"";"";"";"";"";"";"";"";"";"";"";"";"";t;
313;"ADILSON TADEU SOARES-ME.                                                        ";"";"15217411000100";"";"";"";"";"";"";"";"";"";"";"";"";"";t;
314;"TAHISA COMERCIO DE TINTAS LTDA - ME                                             ";"";"01791304000187";"";"";"";"";"";"";"";"";"";"";"";"";"";t;
315;"ALEKSANDRO DE ALMEIDA - ME                                                      ";"";"08362424000108";"";"";"";"";"";"";"";"";"";"";"";"";"";t;
316;"PHRONESIS COM. SERV. ELETROELET. E BAZAR EM GERAL LTDA - EPP                    ";"";"10868625000123";"";"";"";"";"";"";"";"";"";"";"";"";"";f;
317;"EMPORIO DO PINTOR Com. de Tintas Ltda. - ME.                                    ";"";"07028289000104";"";"";"";"";"";"";"";"";"";"";"";"";"";t;
318;"PINDA TINTAS LTDA                                                               ";"";"54264221000104";"";"";"";"";"";"";"";"";"";"";"";"";"";t;
319;"Euro Comercio de Tintas LTDA-ME                                                 ";"";"10402748000174";"";"";"";"";"";"";"";"";"";"";"";"";"";f;
320;"GUARETAMA MATERIAIS P/CONSTRUCAO LTDA EP                                        ";"";"20889025000103";"";"";"";"";"";"";"";"";"";"";"";"";"";t;
321;"SAMMARONE                                                                       ";"";"              ";"";"";"";"";"";"";"";"";"";"";"";"";"";t;
322;"BIOASIS COMERCIO DE PRODUTOS NATURAIS LTDA.                                     ";"";"03390095000195";"";"";"";"";"";"";"";"";"";"";"";"";"";t;
323;"R. DE F. PIRES DE MORAES - DEPOSITO                                             ";"";"74631466000121";"";"";"";"";"";"";"";"";"";"";"";"";"";f;
324;"R J R - COMERCIO DE MATERIAIS PARA PINTURA LTDA - ME                            ";"";"18915393000129";"";"";"";"";"";"";"";"";"";"";"";"";"";f;
325;"Afec Comercio de Tintas Ltda.                                                   ";"";"04272265000108";"";"";"";"";"";"";"";"";"";"";"";"";"";t;
326;"Comercio de Tintas e Ferragens JACUI Ltda.                                      ";"";"59075945000115";"";"";"";"";"";"";"";"";"";"";"";"";"";f;
327;"ATUAL TUBO LTDA.                                                                ";"";"14316003000143";"";"";"";"";"";"";"";"";"";"";"";"";"";t;
328;"ITATINTAS COMERCIO DE TINTAS LTDA.                                              ";"";"58681719000115";"";"";"";"";"";"";"";"";"";"";"";"";"";t;
329;"PARAFUTRECOS Comercial Ltda                                                     ";"";"01486915000111";"";"";"";"";"";"";"";"";"";"";"";"";"";t;
330;"ATA-K-DAO AUGUSTA MATERIAIS P/ CONSTRUCAO LTDA - EPP                            ";"";"53896981000163";"";"";"";"";"";"";"";"";"";"";"";"";"";t;
331;"CONDOMINIO IPE                                                                  ";"";"              ";"";"";"";"";"";"";"";"";"";"";"";"";"";t;
332;"MENDES COM. DE TINTAS E ACESS. LTDA.                                            ";"";"71785810000149";"";"";"";"";"";"";"";"";"";"";"";"";"";t;
333;"DPP PLASTICOS EIRELI - EPP (ROYAL PLAST)                                        ";"";"17557849000163";"";"";"";"";"";"";"";"";"";"";"";"";"";t;
334;"ZONA LESTE COMERCIO DE TINTAS LTDA EPP                                          ";"";"22911430000106";"";"";"";"";"";"";"";"";"";"";"";"";"";t;
335;"OLIVEIRA E OLIVEIRA BM TINTAS LTDA.                                             ";"";"27613835000173";"";"";"";"";"";"";"";"";"";"";"";"";"";t;
336;"RODOTINTAS COMERCIO DE TINTAS LTDA.                                             ";"";"05762701000181";"";"";"";"";"";"";"";"";"";"";"";"";"";t;
337;"WASHINGTON LUIS COMERCIO DE TINTAS LTDA.                                        ";"";"12456991000109";"";"";"";"";"";"";"";"";"";"";"";"";"";t;
338;"Mix ABC Comercio de Tintas Ltda.                                                ";"";"02806954000111";"";"";"";"";"";"";"";"";"";"";"";"";"";t;
339;"CALLEGARO COMERCIAL LTDA                                                        ";"";"59106997000101";"";"";"";"";"";"";"";"";"";"";"";"";"";t;
340;"Tintas TABOAO Ltda.                                                             ";"";"05633504000162";"";"";"";"";"";"";"";"";"";"";"";"";"";t;
341;"PARAPUA COMERCIO DE TINTAS LTDA.                                                ";"";"08744675000157";"";"";"";"";"";"";"";"";"";"";"";"";"";t;
342;"DEPOSITO DE TINTAS FRANCORROCHENSE LTDA                                         ";"";"43957422000162";"";"";"";"";"";"";"";"";"";"";"";"";"";t;
343;"TINTAS PARQUE NOVO MUNDO LTDA.                                                  ";"";"55788897000151";"";"";"";"";"";"";"";"";"";"";"";"";"";t;
344;"APOIO TINTAS e Mats. p/ Constr. Ltda.                                           ";"";"03111087000162";"";"";"";"";"";"";"";"";"";"";"";"";"";t;
345;"LARA GOUVEA Com. Imp. Exp. Ltda.                                                ";"";"00238221000100";"";"";"";"";"";"";"";"";"";"";"";"";"";t;
346;"TJ COMERCIO E DISTRIBUICAO LTDA                                                 ";"";"00509032000117";"";"";"";"";"";"";"";"";"";"";"";"";"";t;
347;"M RAE CENTER COMERCIO DE TINTAS LTDA ME                                         ";"";"04506308000245";"";"";"";"";"";"";"";"";"";"";"";"";"";t;
348;"INCOMASE IND. E COM. DE EQUIP. DE SEGURANCA LTDA - EPP                          ";"";"58213299000142";"";"";"";"";"";"";"";"";"";"";"";"";"";t;
349;"SURIANA COMERCIO DE PLASTICOS LTDA                                              ";"";"07760446000163";"";"";"";"";"";"";"";"";"";"";"";"";"";t;
350;"FESTA CHOPP & CIA - UNID MOGI                                                   ";"";"07376941000173";"";"";"";"";"";"";"";"";"";"";"";"";"";t;
351;"AREINHA TINTAS LTDA.                                                            ";"";"06077715000129";"";"";"";"";"";"";"";"";"";"";"";"";"";t;
352;"DICONCRETO MATS. P/ CONSTRUCAO LTDA. ME                                         ";"";"07035779000120";"";"";"";"";"";"";"";"";"";"";"";"";"";t;
353;"LUZ DA ALMA ARTIGOS RELIGIOSOS LTDA.                                            ";"";"              ";"";"";"";"";"";"";"";"";"";"";"";"";"";f;
354;"DEMONSTRACAO Ltda.                                                              ";"";"60887213000109";"";"";"";"";"";"";"";"";"";"";"";"";"";f;
355;"ACEFER FERRAMENTAS E TINTAS LTDA - 04                                           ";"";"69144806000311";"";"";"";"";"";"";"";"";"";"";"";"";"";t;
356;"DPA PLASTICOS LTDA.                                                             ";"";"12367669000103";"";"";"";"";"";"";"";"";"";"";"";"";"";t;
357;"DISTRIBUIDORA DE PLASTICOS M. ALEGRE - EIRELI - EPP                             ";"";"21683637000108";"";"";"";"";"";"";"";"";"";"";"";"";"";t;
358;"ACEFER FERRAMENTAS E TINTAS LTDA.                                               ";"";"69144806000150";"";"";"";"";"";"";"";"";"";"";"";"";"";t;
359;"BRASILESTE Mat. p/ Coberturas Ltda.                                             ";"";"52289154000149";"";"";"";"";"";"";"";"";"";"";"";"";"";t;
360;"PIRAMIDE Comercio de Tintas Ltda.                                               ";"";"52555232000100";"";"";"";"";"";"";"";"";"";"";"";"";"";t;
361;"G.W. - COMERCIO DE TINTAS LTDA - ME                                             ";"";"05008274000140";"";"";"";"";"";"";"";"";"";"";"";"";"";t;
362;"Comercio de Tintas MKF Ltda.                                                    ";"";"10738853000189";"";"";"";"";"";"";"";"";"";"";"";"";"";t;
363;"E.M. COMERCIO DE TINTAS LTDA - EPP                                              ";"";"08843135000120";"";"";"";"";"";"";"";"";"";"";"";"";"";t;
364;"CARO COMERCIO IMPORTACAO E EXPORTACAO LTDA.                                     ";"";"05073646000112";"";"";"";"";"";"";"";"";"";"";"";"";"";t;
365;"MAXIMILIANO GASQUES ME                                                          ";"";"47709035000168";"";"";"";"";"";"";"";"";"";"";"";"";"";f;
366;"MEGA INDUSTRIA E COMERCIO DE TINTAS LTDA - ME                                   ";"";"16734229000190";"";"";"";"";"";"";"";"";"";"";"";"";"";t;
367;"TUTOIA COMERCIO DE TINTAS LTDA. - EPP                                           ";"";"08068129000143";"";"";"";"";"";"";"";"";"";"";"";"";"";t;
368;"SIRCESP - SINDICATO REPR.COMER.EMPR.REPR.COMER.EST.SP                           ";"";"60748332000180";"";"";"";"";"";"";"";"";"";"";"";"";"";t;
369;"CORTINTAS COMERCIO DE TINTAS LTDA                                               ";"";"00193965000148";"";"";"";"";"";"";"";"";"";"";"";"";"";t;
370;"Tintas.Com IV                                                                   ";"";"04704213000155";"";"";"";"";"";"";"";"";"";"";"";"";"";t;
371;"DOVAL COMERCIO DE TINTAS LTDA.                                                  ";"";"67506139000181";"";"";"";"";"";"";"";"";"";"";"";"";"";t;
372;"SKE INDUSTRIA MECANICA LTDA                                                     ";"";"01660660000161";"";"";"";"";"";"";"";"";"";"";"";"";"";t;
373;"ECOBRAS COMERCIAL TEXTIL LTDA.                                                  ";"";"11812313000160";"";"";"";"";"";"";"";"";"";"";"";"";"";t;
374;"IMPERIO DAS TINTAS COMERCIO DE TINTAS EIRELI - ME                               ";"";"24217962000165";"";"";"";"";"";"";"";"";"";"";"";"";"";f;
375;"VIVAL COMERCIO DE TINTAS LTDA. (FILIAL)                                         ";"";"05921801000294";"";"";"";"";"";"";"";"";"";"";"";"";"";t;
376;"NEON COMERCIO DE TINTAS LTDA.                                                   ";"";"21454868000131";"";"";"";"";"";"";"";"";"";"";"";"";"";t;
377;"LOPES & BORBA COMERCIO DE TINTAS LTDA                                           ";"";"09539634000191";"";"";"";"";"";"";"";"";"";"";"";"";"";t;
378;"SHOPPING TINTAS LTDA.                                                           ";"";"01834698000375";"";"";"";"";"";"";"";"";"";"";"";"";"";f;
379;"CENTRAL COM. DE TINTAS E ABRASIVOS LTDA - 05                                    ";"";"00981788000161";"";"";"";"";"";"";"";"";"";"";"";"";"";f;
380;"BERGAMIN COMERCIO DE MATERIAIS PARA CONSTRUCAO LTDA-ME                          ";"";"02821828000306";"";"";"";"";"";"";"";"";"";"";"";"";"";t;
381;"MATHEUS COMERCIO DE TINTAS LTDA ME                                              ";"";"74701376000160";"";"";"";"";"";"";"";"";"";"";"";"";"";f;
382;"VIVAL COMERCIO DE TINTAS LTDA                                                   ";"";"05921801000375";"";"";"";"";"";"";"";"";"";"";"";"";"";t;
383;"YPE SHOPPING DAS TINTAS LTDA.                                                   ";"";"66870858000115";"";"";"";"";"";"";"";"";"";"";"";"";"";t;
384;"NOVA ARMAZEM DOS TECIDOS COMERCIAL TEXTIL LTDA - ME                             ";"";"18739962000122";"";"";"";"";"";"";"";"";"";"";"";"";"";t;
385;"ALFA COMERCIO DE TINTAS FERRAG. LTDA ME                                         ";"";"19155078000103";"";"";"";"";"";"";"";"";"";"";"";"";"";f;
386;"TAIPAS COMERCIO DE TINTAS LTDA - ME                                             ";"";"96445440000121";"";"";"";"";"";"";"";"";"";"";"";"";"";f;
387;"LAERTE VIAL JUNIOR                                                              ";"";"58546565000159";"";"";"";"";"";"";"";"";"";"";"";"";"";t;
388;"D.A.L. CAROLA TINTAS ME.                                                        ";"";"05929348000181";"";"";"";"";"";"";"";"";"";"";"";"";"";t;
389;"ANALIA FRANCO Comercio de Tintas Ltda.                                          ";"";"08353444000112";"";"";"";"";"";"";"";"";"";"";"";"";"";t;
390;"SERRANA COMERCIO DE TINTAS LTDA - 01                                            ";"";"93277945000217";"";"";"";"";"";"";"";"";"";"";"";"";"";f;
391;"IMPERIO CENTER IMIRIM COM. TINTAS LTDA.                                         ";"";"08194918000120";"";"";"";"";"";"";"";"";"";"";"";"";"";t;
392;"CANARINHO Tintas e Complementos Ltda.                                           ";"";"09524781000198";"";"";"";"";"";"";"";"";"";"";"";"";"";t;
393;"ADILSON TADEU SOARES - ME (FILIAL 02)                                           ";"";"              ";"";"";"";"";"";"";"";"";"";"";"";"";"";t;
394;"Clodoaldo & Cia Ltda - EPP                                                      ";"";"48031843000505";"";"";"";"";"";"";"";"";"";"";"";"";"";t;
395;"C L DA SILVA TINTAS AUTOMOTIVAS - ME                                            ";"";"15540097000100";"";"";"";"";"";"";"";"";"";"";"";"";"";f;
396;"JOJOTA MATERIAIS PARA CONSTRUCAO LTDA                                           ";"";"44198208000132";"";"";"";"";"";"";"";"";"";"";"";"";"";t;
397;"COPER TINTAS LTDA ME                                                            ";"";"39010129000116";"";"";"";"";"";"";"";"";"";"";"";"";"";t;
398;"CASA DE TINTAS CRUZEIRO DO SUL LTDA - ME                                        ";"";"10939509000126";"";"";"";"";"";"";"";"";"";"";"";"";"";f;
399;"AGARI Com. de Tintas e Ferragens Ltda. - ME                                     ";"";"00211092000159";"";"";"";"";"";"";"";"";"";"";"";"";"";t;
400;"BARBINHA Materiais p/ Construcao Ltda.                                          ";"";"96285200000107";"";"";"";"";"";"";"";"";"";"";"";"";"";t;
401;"SWM COMERCIO DE TECIDOS LTDA.                                                   ";"";"15809244000197";"";"";"";"";"";"";"";"";"";"";"";"";"";t;
402;"MARLON GONCALVES GERALDO - ME                                                   ";"";"23236773000177";"";"";"";"";"";"";"";"";"";"";"";"";"";t;
403;"IDEAL TUBOS LTDA.                                                               ";"";"09106104000150";"";"";"";"";"";"";"";"";"";"";"";"";"";t;
404;"FUJIBRAS COMERCIO DE FERRAGENS LTDA - ME                                        ";"";"10293316000172";"";"";"";"";"";"";"";"";"";"";"";"";"";t;
405;"ESCUDERO TINTAS LTDA. - FILIAL 03                                               ";"";"67870683000532";"";"";"";"";"";"";"";"";"";"";"";"";"";t;
406;"CASA SANTOS Montanari Materiais p/ Constr. Ltda                                 ";"";"02296296000165";"";"";"";"";"";"";"";"";"";"";"";"";"";t;
407;"J.O.R. Comercial de Tintas Ltda.                                                ";"";"55502553000134";"";"";"";"";"";"";"";"";"";"";"";"";"";t;
408;"Tintas GOMES Ltda.                                                              ";"";"61552089000193";"";"";"";"";"";"";"";"";"";"";"";"";"";t;
409;"INTERCAP TINTAS DECORACAO E MAT. P/ CONSTRUCAO EIRELI - ME                      ";"";"15698255000147";"";"";"";"";"";"";"";"";"";"";"";"";"";f;
410;"TRES VE COM DE TINTAS LTDA - FILIAL                                             ";"";"02893250000204";"";"";"";"";"";"";"";"";"";"";"";"";"";t;
411;"PLAST KING IND. COM. E DISTR. EIRELI EPP                                        ";"";"19887600000141";"";"";"";"";"";"";"";"";"";"";"";"";"";t;
412;"ADELSON CONCEICAO MATTOS MAT. PARA CONSTRUCAO - ME                              ";"";"20274176000149";"";"";"";"";"";"";"";"";"";"";"";"";"";f;
413;"KAKA COMERCIO DE TINTAS LTDA - ME                                               ";"";"13605341000132";"";"";"";"";"";"";"";"";"";"";"";"";"";t;
414;"COMERCIAL DE PLASTICOS ABUDE LTDA.                                              ";"";"07366729000125";"";"";"";"";"";"";"";"";"";"";"";"";"";t;
415;"NOVA CLASSIC COM. DE PLAST.E MAT. P/BRINDES E ACESS. LTDA                       ";"";"07388203000146";"";"";"";"";"";"";"";"";"";"";"";"";"";t;
416;"C.S.E COMERCIO DE FERRAGENS E FERRAMENTAS LTDA - ME                             ";"";"10379133000174";"";"";"";"";"";"";"";"";"";"";"";"";"";t;
417;"RUDMENTO MATERIAIS DE CONSTRUCAO                                                ";"";"14252793000140";"";"";"";"";"";"";"";"";"";"";"";"";"";f;
418;"REVESTCOM COM. ART. P/ TAPECARIA EIRELI                                         ";"";"08846071000111";"";"";"";"";"";"";"";"";"";"";"";"";"";t;
419;"SOLINOX Comercio de Soldas Ltda.                                                ";"";"54510052000137";"";"";"";"";"";"";"";"";"";"";"";"";"";f;
420;"MAX SCALLA INFORMATICA LTDA.                                                    ";"";"58472416000192";"";"";"";"";"";"";"";"";"";"";"";"";"";t;
421;"Meireles e Silva Comercio de Tintas Ltda.                                       ";"";"03447606000168";"";"";"";"";"";"";"";"";"";"";"";"";"";t;
422;"ELETROTEL COMP. ELETRONICOS LTDA.                                               ";"";"46884946000169";"";"";"";"";"";"";"";"";"";"";"";"";"";t;
423;"VANFAB Comercio de Tintas Ltda.                                                 ";"";"02675090000146";"";"";"";"";"";"";"";"";"";"";"";"";"";f;
424;"Campos Santos Moura Ltda - EPP                                                  ";"";"04543661000114";"";"";"";"";"";"";"";"";"";"";"";"";"";t;
425;"BERGAMIN COM.MATS.P/ CONSTRUCAO LTDA. ME                                        ";"";"02821828000136";"";"";"";"";"";"";"";"";"";"";"";"";"";t;
426;"DELLA ROSA Importacao e Exportacao LTDA.                                        ";"";"15513452000144";"";"";"";"";"";"";"";"";"";"";"";"";"";t;
427;"EDO SUSHI BAR E RESTAURANTE LTDA ME                                             ";"";"17279179000160";"";"";"";"";"";"";"";"";"";"";"";"";"";t;
428;"Distr. RUDGE RAMOS Comercio de Tintas Ltda - ME                                 ";"";"07408070000122";"";"";"";"";"";"";"";"";"";"";"";"";"";t;
429;"CAZE COMERCIO DE TINTAS LTDA - MATRIZ                                           ";"";"67128785000153";"";"";"";"";"";"";"";"";"";"";"";"";"";f;
430;"TJ 13 RESTAURANTE LTDA - EPP.                                                   ";"";"18004767000154";"";"";"";"";"";"";"";"";"";"";"";"";"";f;
431;"LUCIO SOARES DA COSTA TINTAS - ME                                               ";"";"07906848000123";"";"";"";"";"";"";"";"";"";"";"";"";"";f;
432;"FERNANDES & FERNANDES COMERCIO DE TINTAS LTDA - ME                              ";"";"07440283000131";"";"";"";"";"";"";"";"";"";"";"";"";"";f;
433;"GOMES E VALINO LTDA - EPP                                                       ";"";"12153765000221";"";"";"";"";"";"";"";"";"";"";"";"";"";t;
434;"CASA DAS TINTAS MOL LTDA - ME                                                   ";"";"51152379000196";"";"";"";"";"";"";"";"";"";"";"";"";"";t;
435;"Rossana de Chagas Carvalho - ME.                                                ";"";"22963008000196";"";"";"";"";"";"";"";"";"";"";"";"";"";f;
436;"ALCAR COMERCIO DE TINTAS LTDA.                                                  ";"";"65993040000127";"";"";"";"";"";"";"";"";"";"";"";"";"";t;
437;"AUTO ELETRICO KIRI LTDA - ME                                                    ";"";"59453332000174";"";"";"";"";"";"";"";"";"";"";"";"";"";f;
438;"WEB CORES COMERCIO E DISTR. TINTAS LTDA                                         ";"";"09106941000189";"";"";"";"";"";"";"";"";"";"";"";"";"";t;
439;"TINTASUR Comercio de Tintas Ltda.                                               ";"";"              ";"";"";"";"";"";"";"";"";"";"";"";"";"";t;
440;"B.W.E Chopp Ltda - ME                                                           ";"";"01771307000110";"";"";"";"";"";"";"";"";"";"";"";"";"";t;
441;"VINICIUS ITALO FURLANES - ME                                                    ";"";"13170852000179";"";"";"";"";"";"";"";"";"";"";"";"";"";f;
442;"L. Veronesi & Cia Ltda.                                                         ";"";"61170916000184";"";"";"";"";"";"";"";"";"";"";"";"";"";f;
443;"TECHNIK COMERCIO DE TINTAS LTDA.                                                ";"";"20544994000114";"";"";"";"";"";"";"";"";"";"";"";"";"";t;
444;"LUIZ CLAUDIO BAAKLINI - ME.                                                     ";"";"03001431000160";"";"";"";"";"";"";"";"";"";"";"";"";"";t;
445;"TRI A COMERCIO DE TINTAS AUTOMOTIVAS E FERRAGENS LTDA - ME                      ";"";"22742494000112";"";"";"";"";"";"";"";"";"";"";"";"";"";t;
446;"JACIRA CATANIA RAMOS - ME                                                       ";"";"06948139000148";"";"";"";"";"";"";"";"";"";"";"";"";"";t;
447;"MORATINTAS Ltda. - ME                                                           ";"";"01744910000141";"";"";"";"";"";"";"";"";"";"";"";"";"";t;
448;"GELO ATIBAIA INDUSTRIA COMERCIO LTDA EPP                                        ";"";"16928698000140";"";"";"";"";"";"";"";"";"";"";"";"";"";t;
449;"GOMES & VALINO LTDA - EPP FILIAL 2                                              ";"";"12153765000221";"";"";"";"";"";"";"";"";"";"";"";"";"";t;
450;"COMERCIO DE TINTAS CADILLAC LTDA - EPP                                          ";"";"22400986000120";"";"";"";"";"";"";"";"";"";"";"";"";"";t;
451;"COMAPI Tintas (Ipiranga)                                                        ";"";"62864525000122";"";"";"";"";"";"";"";"";"";"";"";"";"";t;
452;"H.N. TINTAS LTDA.                                                               ";"";"07065047000182";"";"";"";"";"";"";"";"";"";"";"";"";"";t;
453;"CASA DE TINTAS LOPES LTDA.                                                      ";"";"60887213000109";"";"";"";"";"";"";"";"";"";"";"";"";"";t;
454;"IMAGINE IND. COM. DE PROD. PROM. LTDA ME                                        ";"";"10370364000117";"";"";"";"";"";"";"";"";"";"";"";"";"";t;
455;"SALVETTI & CIA LTDA.                                                            ";"";"70947379000127";"";"";"";"";"";"";"";"";"";"";"";"";"";t;
456;"EQUIVALE - EQUIPAMENTOS DE PROTECAO LTDA                                        ";"";"07477122000112";"";"";"";"";"";"";"";"";"";"";"";"";"";t;
457;"CASSEMIRO VIEIRA - ME                                                           ";"";"06232966000130";"";"";"";"";"";"";"";"";"";"";"";"";"";f;
458;"BRASIL COR COMERCIO DE TINTAS LTDA - ME.                                        ";"";"05214727000195";"";"";"";"";"";"";"";"";"";"";"";"";"";t;
459;"O TINTAO COMERCIAL LTDA.                                                        ";"";"96576905000183";"";"";"";"";"";"";"";"";"";"";"";"";"";f;
460;"B.M. MARCATTI ELETRONICA ME.                                                    ";"";"09331345000100";"";"";"";"";"";"";"";"";"";"";"";"";"";t;
461;"Bazar das Tintas (Clodomiro)                                                    ";"";"67331538000664";"";"";"";"";"";"";"";"";"";"";"";"";"";t;
462;"OTICA E RELOJOARIA LUCI - ME                                                    ";"";"55129894000106";"";"";"";"";"";"";"";"";"";"";"";"";"";t;
463;"SILVA E DE CURSI TINTAS LTDA.                                                   ";"";"11375452000174";"";"";"";"";"";"";"";"";"";"";"";"";"";t;
464;"PANAMERICA Componentes Eletronicos Ltda.                                        ";"";"53275657000128";"";"";"";"";"";"";"";"";"";"";"";"";"";t;
465;"ORIGINAL COMERCIO DE TINTAS AUT. IMOB. LTDA - ME                                ";"";"06183041000147";"";"";"";"";"";"";"";"";"";"";"";"";"";t;
466;"FIMEL Materiais Eletricos Ltda.                                                 ";"";"58831751000130";"";"";"";"";"";"";"";"";"";"";"";"";"";t;
467;"FLORESTA TUBOS E PERFIS DE ACO LTDA.                                            ";"";"04383990000145";"";"";"";"";"";"";"";"";"";"";"";"";"";t;
468;"ALVONIL Industria de Tintas e Vernizes Ltda.                                    ";"";"62345137000135";"";"";"";"";"";"";"";"";"";"";"";"";"";t;
469;"FERRAFER COMERCIO DE FERRO E FERRAGENS LTDA EPP                                 ";"";"64583719000185";"";"";"";"";"";"";"";"";"";"";"";"";"";f;
470;"DISTRIBUIDORA DECASTRO LTDA - ME                                                ";"";"18721079000105";"";"";"";"";"";"";"";"";"";"";"";"";"";t;
471;"Tintas.com Ltda - ME.                                                           ";"";"04612856000179";"";"";"";"";"";"";"";"";"";"";"";"";"";t;
472;"FRANCISCO GIRALDI & FILHOS LTDA.                                                ";"";"44507002000147";"";"";"";"";"";"";"";"";"";"";"";"";"";t;
473;"Com. de Tintas e Ferragens BELA VISTA Ltda.                                     ";"";"47682869000127";"";"";"";"";"";"";"";"";"";"";"";"";"";f;
474;"SANTOS E SILVA COMERCIO VAR. DE MATERIAIS P/ PINTURA LTDA ME                    ";"";"18102573000191";"";"";"";"";"";"";"";"";"";"";"";"";"";f;
475;"AWS FABRICACAO E COMERCIO DE MOVEIS LTDA - EPP                                  ";"";"06789046000118";"";"";"";"";"";"";"";"";"";"";"";"";"";t;
476;"CATALDO & AYOUB TINTAS LTDA.                                                    ";"";"62497144000152";"";"";"";"";"";"";"";"";"";"";"";"";"";t;
477;"LARA AUGUSTO COSTA LTDA - ME                                                    ";"";"05320712000101";"";"";"";"";"";"";"";"";"";"";"";"";"";t;
478;"CR DA SILVA BAGAGEIROS                                                          ";"";"11276669000127";"";"";"";"";"";"";"";"";"";"";"";"";"";t;
479;"DEPOSITO DE MATERIAIS ELET. E HIDR. PONTA & NUNES LTDA - ME                     ";"";"71781561000113";"";"";"";"";"";"";"";"";"";"";"";"";"";f;
480;"ANA CAROLINA IEMMA LOPES                                                        ";"";"08219497000145";"";"";"";"";"";"";"";"";"";"";"";"";"";t;
481;"POLLO COMERCIO DE TINTAS E PINTURAS LTDA                                        ";"";"17758568000179";"";"";"";"";"";"";"";"";"";"";"";"";"";f;
482;"HR RODAS Comercio de Auto Pecas Ltda.                                           ";"";"67346882000201";"";"";"";"";"";"";"";"";"";"";"";"";"";t;
483;"JFG COMERCIO DE TINTAS LTDA - ME                                                ";"";"02400713000178";"";"";"";"";"";"";"";"";"";"";"";"";"";t;
484;"MEDEIROS NERY E CIA. LTDA                                                       ";"";"06077715000129";"";"";"";"";"";"";"";"";"";"";"";"";"";t;
485;"ROSDNEY PERES COMERCIO DE PLASTICOS - ME                                        ";"";"17165566000176";"";"";"";"";"";"";"";"";"";"";"";"";"";f;
486;"A&B COMERCIO DE TINTAS LTDA.                                                    ";"";"02352617000100";"";"";"";"";"";"";"";"";"";"";"";"";"";f;
487;"MH DI MAURO DAVID FERRO E ACO - EPP                                             ";"";"09149210000110";"";"";"";"";"";"";"";"";"";"";"";"";"";t;
488;"A.PAULA DE A.VIANA - ME                                                         ";"";"03128947000170";"";"";"";"";"";"";"";"";"";"";"";"";"";t;
489;"TEC TINTAS Tecnologia em Tintas Ltda-ME                                         ";"";"03517253000125";"";"";"";"";"";"";"";"";"";"";"";"";"";t;
490;"COMERCIAL IPIRANGA DE TINTAS LTDA.                                              ";"";"09440709000182";"";"";"";"";"";"";"";"";"";"";"";"";"";t;
491;"ONIX COMERCIO DE TINTAS E VERNIZES LTDA. - FILIAL II                            ";"";"13762929000280";"";"";"";"";"";"";"";"";"";"";"";"";"";t;
492;"Auto Pecas BRANDAO Ltda.                                                        ";"";"64560444000164";"";"";"";"";"";"";"";"";"";"";"";"";"";t;
493;"A SAMBINELLI                                                                    ";"";"62979497000199";"";"";"";"";"";"";"";"";"";"";"";"";"";t;
494;"ATHENAS TINTAS LTDA - ME                                                        ";"";"13338185000190";"";"";"";"";"";"";"";"";"";"";"";"";"";t;
495;"MARCA SINALIZACAO E SERVICOS LTDA.                                              ";"";"02192840000129";"";"";"";"";"";"";"";"";"";"";"";"";"";t;
496;"ERICSSON BRUNO HORACIO DE MELO - ME                                             ";"";"12576024000172";"";"";"";"";"";"";"";"";"";"";"";"";"";f;
497;"MARIA JULIA PIRES ESTEVES COTIA - ME.                                           ";"";"67528836000134";"";"";"";"";"";"";"";"";"";"";"";"";"";t;
498;"MUNDO TINTAS EIRELI - ME                                                        ";"";"17831449000102";"";"";"";"";"";"";"";"";"";"";"";"";"";t;
499;"MECANFER HORTENCIAIS DE FERRAMENTAS LTDA - ME                                   ";"";"00011259000138";"";"";"";"";"";"";"";"";"";"";"";"";"";t;
500;"GUILHERME VENDRAME TINTAS - EPP                                                 ";"";"07699326000106";"";"";"";"";"";"";"";"";"";"";"";"";"";t;
501;"CASA DE TINTAS SHIROMA LTDA.                                                    ";"";"53192431000163";"";"";"";"";"";"";"";"";"";"";"";"";"";t;
502;"INTERFIX COMERCIAL LTDA.                                                        ";"";"02590595000108";"";"";"";"";"";"";"";"";"";"";"";"";"";t;
503;"JINKOU IMPORTACAO E EXPORTACAO LTDA - EPP                                       ";"";"13650149000168";"";"";"";"";"";"";"";"";"";"";"";"";"";t;
504;"IMAGINE IND. COM. DE PROD. PROM. LTDA ME - FILIAL                               ";"";"10370364000206";"";"";"";"";"";"";"";"";"";"";"";"";"";t;
505;"METALURGICA SKE BRASIL LTDA.                                                    ";"";"08832171000199";"";"";"";"";"";"";"";"";"";"";"";"";"";t;
506;"JMM8X COM. DE ARTIGOS PARA ARMARINHOS E PRESENTES LTDA - ME                     ";"";"16569222000160";"";"";"";"";"";"";"";"";"";"";"";"";"";t;
507;"CONSTRUTORA SAPE LTDA.                                                          ";"";"              ";"";"";"";"";"";"";"";"";"";"";"";"";"";t;
508;"VIVAL COMERCIO DE TINTAS LTDA (FILIAL 6)                                        ";"";"05921801000456";"";"";"";"";"";"";"";"";"";"";"";"";"";t;
509;"BRAND COLOR COMERCIO DE TINTAS LTDA EEP                                         ";"";"02306086000100";"";"";"";"";"";"";"";"";"";"";"";"";"";t;
510;"REGO FREITAS COMERCIO DE TINTAS LTDA. - ME                                      ";"";"10985856000117";"";"";"";"";"";"";"";"";"";"";"";"";"";t;
511;"PALACIO DAS BICICLETAS SCATT LTDA.                                              ";"";"60868809000161";"";"";"";"";"";"";"";"";"";"";"";"";"";t;
512;"TRUCK TORKE PECAS E SERV ESPEC LTDA EPP                                         ";"";"03641105000118";"";"";"";"";"";"";"";"";"";"";"";"";"";t;
513;"SINALMAX COMERCIAL E INDUSTRIAL DE SINALIZACAO LTDA.                            ";"";"06087729000123";"";"";"";"";"";"";"";"";"";"";"";"";"";t;
514;"SUGOI COMERCIO DE FERRAMENTAS LTDA - ME.                                        ";"";"08704747000132";"";"";"";"";"";"";"";"";"";"";"";"";"";f;
515;"COMERCIAL IPIRANGA DE TINTAS LTDA                                               ";"";"09440709000182";"";"";"";"";"";"";"";"";"";"";"";"";"";t;
516;"LUDCEL DISTRIBUIDORA LTDA.                                                      ";"";"59790063000131";"";"";"";"";"";"";"";"";"";"";"";"";"";t;
517;"CASA A.SANTOS PISOS E MATERIAIS PARA CONSTRUCAO EIRELLI EPP                     ";"";"15251825000156";"";"";"";"";"";"";"";"";"";"";"";"";"";t;
518;"Deposito Mats. p/ Constr. PATRIARCA Ltda.                                       ";"";"61275616000160";"";"";"";"";"";"";"";"";"";"";"";"";"";t;
519;"MMFCR Importacao e Exportacao Ltda.                                             ";"";"04307015000158";"";"";"";"";"";"";"";"";"";"";"";"";"";t;
520;"ECOBRAS COMERCIO TEXTIL LTDA                                                    ";"";"11812313000241";"";"";"";"";"";"";"";"";"";"";"";"";"";t;
521;"CARVALHO RODRIGUES LIMA COM. DE TINTAS LTDA. ME                                 ";"";"08983222000183";"";"";"";"";"";"";"";"";"";"";"";"";"";t;
522;"HR COMERCIO DE TINTAS E FERRAMENTAS LTDA                                        ";"";"23227567000109";"";"";"";"";"";"";"";"";"";"";"";"";"";t;
523;"COMERCIAL IPIRANGA DE TINTAS Ltda                                               ";"";"09440709000182";"";"";"";"";"";"";"";"";"";"";"";"";"";t;
524;"COMERCIO DE PLASTICO ROMATEX LTDA - EPP                                         ";"";"18988559000137";"";"";"";"";"";"";"";"";"";"";"";"";"";t;
525;"BONE DISTR. DE FERRAM. E ABRASIVOS LTDA.                                        ";"";"84752633000146";"";"";"";"";"";"";"";"";"";"";"";"";"";t;
526;"MARCELO DE SOUZA ME                                                             ";"";"10408041000175";"";"";"";"";"";"";"";"";"";"";"";"";"";t;
527;"WAGNER L. GIRALDI MATS. P/ TINTAS EM GERAL                                      ";"";"09524781000198";"";"";"";"";"";"";"";"";"";"";"";"";"";t;
528;"TINTAS E TINTAS LTDA.                                                           ";"";"01111464000138";"";"";"";"";"";"";"";"";"";"";"";"";"";t;
529;"MARCELO DE SOUZA - EPP                                                          ";"";"10408041000175";"";"";"";"";"";"";"";"";"";"";"";"";"";t;
530;"CENTERGRAFF IND. E COM. DE TINTAS E TEXTURAS LTDA - EPP                         ";"";"19019568000182";"";"";"";"";"";"";"";"";"";"";"";"";"";t;
531;"DIVISA COMERCIO DE MADEIRAS LTDA.                                               ";"";"61350864000128";"";"";"";"";"";"";"";"";"";"";"";"";"";f;
532;"POP GELO IND. E COMERCIO LTDA.                                                  ";"";"04891378000183";"";"";"";"";"";"";"";"";"";"";"";"";"";t;
533;"Tintas Taubate Ltda.                                                            ";"";"50461862000190";"";"";"";"";"";"";"";"";"";"";"";"";"";t;
534;"STYLLO COM DE TINTAS MAT ACAB LTDA - ME                                         ";"";"51155901000193";"";"";"";"";"";"";"";"";"";"";"";"";"";t;
535;"MANANCIAL COM. DE TINTAS E MATERIAIS PARA PINTURA LTDA ME                       ";"";"14536672000120";"";"";"";"";"";"";"";"";"";"";"";"";"";f;
536;"BRASOLV DISTRIBUIDORA DE TINTAS EIRELI                                          ";"";"23457656000133";"";"";"";"";"";"";"";"";"";"";"";"";"";t;
537;"PE DIREITO SHOPPING DA CONSTRUCAO LTDA                                          ";"";"13246180000138";"";"";"";"";"";"";"";"";"";"";"";"";"";f;
538;"LOJA DAS FITAS E ACESSORIOS LTDA - ME                                           ";"";"20058757000143";"";"";"";"";"";"";"";"";"";"";"";"";"";t;
539;"MIRNA BISSOLOTTI GASQUES ME.                                                    ";"";"02741828000126";"";"";"";"";"";"";"";"";"";"";"";"";"";f;
540;"CENTRO CAMPESTRE DA CANTAREIRA LTDA.                                            ";"";"00026943000126";"";"";"";"";"";"";"";"";"";"";"";"";"";t;
541;"Comercio de Tintas GRANADA Ltda.                                                ";"";"68087576000171";"";"";"";"";"";"";"";"";"";"";"";"";"";t;
542;"PEIXOTO GOMIDE COMERCIO DE TINTAS LTDA.                                         ";"";"07407458000109";"";"";"";"";"";"";"";"";"";"";"";"";"";t;
543;"CORES HOUSE TINTAS E COMPLEMENTOS LTDA.                                         ";"";"08403302000112";"";"";"";"";"";"";"";"";"";"";"";"";"";f;
544;"Tintas Novo Rumo                                                                ";"";"05060490000135";"";"";"";"";"";"";"";"";"";"";"";"";"";t;
545;"TUBARAO TINTAS LTDA - ME                                                        ";"";"18687058000200";"";"";"";"";"";"";"";"";"";"";"";"";"";t;
546;"GDM COMERCIO DE MAT EM GERAL LTDA ME                                            ";"";"17399201000105";"";"";"";"";"";"";"";"";"";"";"";"";"";f;
547;"Marlene Mariani - ME.                                                           ";"";"02572564000124";"";"";"";"";"";"";"";"";"";"";"";"";"";t;
548;"GRID TINTAS LTDA - EPP                                                          ";"";"17970993000127";"";"";"";"";"";"";"";"";"";"";"";"";"";t;
549;"FMC COM. DE COU. ART. P/ TAP. E DEC. LTDA                                       ";"";"13713759000163";"";"";"";"";"";"";"";"";"";"";"";"";"";f;
550;"GLOBAL Comercio de Tintas Ltda - ME                                             ";"";"05217199000128";"";"";"";"";"";"";"";"";"";"";"";"";"";t;
551;"MUTINGA Tintas Ltda.                                                            ";"";"06963244000156";"";"";"";"";"";"";"";"";"";"";"";"";"";t;
552;"MARCIO ALEGRE LEME CRISPIM - ME                                                 ";"";"04165173000110";"";"";"";"";"";"";"";"";"";"";"";"";"";t;
553;"J.L.C. Tintas Ltda.                                                             ";"";"96327101000140";"";"";"";"";"";"";"";"";"";"";"";"";"";t;
554;"MM Distribuidora de Tintas Ltda.                                                ";"";"03843726000184";"";"";"";"";"";"";"";"";"";"";"";"";"";t;
555;"Bazar das Tintas (Vila Mariana)                                                 ";"";"67331538000400";"";"";"";"";"";"";"";"";"";"";"";"";"";t;
556;"TINTAS AGUAS CLARAS LTDA.                                                       ";"";"02874695000166";"";"";"";"";"";"";"";"";"";"";"";"";"";t;
557;"RENOVAR CASA E CONSTRUCAO LTDA - ME                                             ";"";"08871357000157";"";"";"";"";"";"";"";"";"";"";"";"";"";t;
558;"GERAL Tintas Ltda.                                                              ";"";"46305884000193";"";"";"";"";"";"";"";"";"";"";"";"";"";t;
559;"Bazar das Tintas (Bela Vista)                                                   ";"";"67331538000150";"";"";"";"";"";"";"";"";"";"";"";"";"";t;
560;"PRACA CENTRAL DE ALIMENTACAO EIRELI - EPP                                       ";"";"06349749000125";"";"";"";"";"";"";"";"";"";"";"";"";"";f;
561;"MAGEL ABC COM. DE MAT. P/ CONSTRUCAO LTDA ME                                    ";"";"01649841000197";"";"";"";"";"";"";"";"";"";"";"";"";"";t;
562;"KENSEI SUSHI BAR LTDA ME                                                        ";"";"01185840000139";"";"";"";"";"";"";"";"";"";"";"";"";"";t;
563;"AEROTINTAS COMERCIAL LTDA.                                                      ";"";"67331538000745";"";"";"";"";"";"";"";"";"";"";"";"";"";t;
564;"Eduardo Jose Fidalgo - ME.                                                      ";"";"04557284000172";"";"";"";"";"";"";"";"";"";"";"";"";"";t;
565;"GP PLACAS COMUNICACAO VISUAL LTDA. - ME                                         ";"";"06059700000138";"";"";"";"";"";"";"";"";"";"";"";"";"";t;
566;"CASA DAS BOBINAS Ltda.                                                          ";"";"02494222000133";"";"";"";"";"";"";"";"";"";"";"";"";"";t;
567;"GUILHERME ELIAS CAROLA - ME                                                     ";"";"09512645000188";"";"";"";"";"";"";"";"";"";"";"";"";"";t;
568;"MIRO Comercio de Tintas Ltda.                                                   ";"";"45624079000160";"";"";"";"";"";"";"";"";"";"";"";"";"";t;
569;"FORTAL TINTAS LTDA - ME.                                                        ";"";"03355117000186";"";"";"";"";"";"";"";"";"";"";"";"";"";f;
570;"ALPHANORTE COMERCIO DE MATERIAIS PARA CONSTRUCAO LTDA EPP                       ";"";"21870527000147";"";"";"";"";"";"";"";"";"";"";"";"";"";t;
571;"ELETROTEL Componentes Eletronicos.                                              ";"";"46884946000240";"";"";"";"";"";"";"";"";"";"";"";"";"";t;
572;"ROSIMEIRE MARRAN EPP                                                            ";"";"09608923000103";"";"";"";"";"";"";"";"";"";"";"";"";"";t;
573;"CASA SHOW TINTAS E FERRAGENS LTDA - ME.                                         ";"";"05105430000272";"";"";"";"";"";"";"";"";"";"";"";"";"";t;
574;"CASA NANCY Materiais p/ Construcao Ltda.                                        ";"";"61484093000161";"";"";"";"";"";"";"";"";"";"";"";"";"";t;
575;"CENTRAL COM. DE TINTAS E ABRASIVOS LTDA - 06                                    ";"";"00981788000326";"";"";"";"";"";"";"";"";"";"";"";"";"";f;
576;"CASA DE TINTAS ARICANDUVA Ltda.                                                 ";"";"54812045000190";"";"";"";"";"";"";"";"";"";"";"";"";"";t;
577;"EVANDRO OLIVEIRA SOUZA - ME.                                                    ";"";"06368957000171";"";"";"";"";"";"";"";"";"";"";"";"";"";f;
578;"D & P COMERCIO DE TINTAS LTDA - EPP                                             ";"";"24030418000100";"";"";"";"";"";"";"";"";"";"";"";"";"";t;
579;"E. P. FRANCISCO COMERCIO DE TINTAS - ME                                         ";"";"11194252000115";"";"";"";"";"";"";"";"";"";"";"";"";"";f;
580;"Center Tintas Taubate Ltda.                                                     ";"";"52455243000118";"";"";"";"";"";"";"";"";"";"";"";"";"";t;
581;"NAZARA & VALINO ARTIGOS E MATERIA PRIMA EMBARCACAO LTDA.                        ";"";"10458028000120";"";"";"";"";"";"";"";"";"";"";"";"";"";f;
582;"DIMPI Distribuidora Ltda. - EPP                                                 ";"";"12427465000102";"";"";"";"";"";"";"";"";"";"";"";"";"";t;
583;"TINTAS CRONOS COMERCIO LTDA ME                                                  ";"";"23908187000121";"";"";"";"";"";"";"";"";"";"";"";"";"";f;
584;"ALAA BAHJAT EL HAJ - ME.                                                        ";"";"15630778000151";"";"";"";"";"";"";"";"";"";"";"";"";"";t;
585;"SOCIAL TINTAS LTDA.                                                             ";"";"62552872000110";"";"";"";"";"";"";"";"";"";"";"";"";"";t;
586;"MEGA CENTER ESSENCIAS LTDA - ME                                                 ";"";"05563213000145";"";"";"";"";"";"";"";"";"";"";"";"";"";t;
587;"PRINCIPAL ESSENCIAS E EMBALAGENS LTDA                                           ";"";"08330168000177";"";"";"";"";"";"";"";"";"";"";"";"";"";t;
588;"CASTELO TINTAS.                                                                 ";"";"59921619000181";"";"";"";"";"";"";"";"";"";"";"";"";"";t;
589;"ACEFER FERRAMENTAS E TINTAS LTDA - 02                                           ";"";"              ";"";"";"";"";"";"";"";"";"";"";"";"";"";t;
590;"DOMENICHELLI INDUSTRIA E COMERCIO LTDA.                                         ";"";"72895741000199";"";"";"";"";"";"";"";"";"";"";"";"";"";t;
591;"MONUMENTO DAS TINTAS EIRELI - ME.                                               ";"";"24465909000183";"";"";"";"";"";"";"";"";"";"";"";"";"";t;
592;"AO MUNDO DAS TINTAS LTDA - FILIAL.                                              ";"";"52746088000350";"";"";"";"";"";"";"";"";"";"";"";"";"";t;
593;"JC8X COMERCIO DE ARTIGOS PARA PRESENTES LTDA                                    ";"";"14894756000136";"";"";"";"";"";"";"";"";"";"";"";"";"";t;
594;"SECRETA TINTAS COMERCIO DE TINTAS LTDA-ME                                       ";"";"12382325000165";"";"";"";"";"";"";"";"";"";"";"";"";"";t;
595;"GOLDEN PARK COMERCIO DE MAT DE CONST                                            ";"";"01861233000141";"";"";"";"";"";"";"";"";"";"";"";"";"";t;
596;"CASA DAS BOMBAS DE ATIBAIA LTDA.                                                ";"";"10931168000174";"";"";"";"";"";"";"";"";"";"";"";"";"";t;
597;"Vera Lucia Resende Lopes.                                                       ";"";"60439981000108";"";"";"";"";"";"";"";"";"";"";"";"";"";t;
598;"TINTA COR Comercial Ltda. - EPP (MATRIZ)                                        ";"";"07851130000187";"";"";"";"";"";"";"";"";"";"";"";"";"";t;
599;"LR GARCIA TINTAS -ME                                                            ";"";"23600952000141";"";"";"";"";"";"";"";"";"";"";"";"";"";t;
600;"JARDIM IBIRAPUERA MATERIAIS PARA CONSTRUCOES LTDA - ME                          ";"";"18096678000185";"";"";"";"";"";"";"";"";"";"";"";"";"";t;
601;"CRISTAL COMERCIO DE TINTAS EIRELI - EPP                                         ";"";"08912555000111";"";"";"";"";"";"";"";"";"";"";"";"";"";t;
602;"H&L COMERCIO E ENGENHARIA LTDA-EPP                                              ";"";"03984791000120";"";"";"";"";"";"";"";"";"";"";"";"";"";t;
603;"ALVES COR PINT.COM.MATS.P/CONST.LTDA ME                                         ";"";"10679585000171";"";"";"";"";"";"";"";"";"";"";"";"";"";t;
604;"INOVADESIGN FERRAGENS E MADEIRAS LTDA-ME.                                       ";"";"24283091000188";"";"";"";"";"";"";"";"";"";"";"";"";"";t;
605;"CLAUDIO R. DOS SANTOS INSTALACOES ELETRICAS - ME                                ";"";"17024468000119";"";"";"";"";"";"";"";"";"";"";"";"";"";t;
606;"IBARE MATERIAIS PARA CONSTRUCAO LTDA                                            ";"";"12755791000149";"";"";"";"";"";"";"";"";"";"";"";"";"";t;
607;"GP GAMBELONI & PACHECO COM. TINTAS LTDA. (MG)                                   ";"";"02977772000294";"";"";"";"";"";"";"";"";"";"";"";"";"";t;
608;"VILACOR COMERCIO DE TINTAS LTDA                                                 ";"";"12418338000147";"";"";"";"";"";"";"";"";"";"";"";"";"";t;
609;"NOVA RIBEIRAO Comercio de Tintas Ltda.                                          ";"";"00475410000199";"";"";"";"";"";"";"";"";"";"";"";"";"";f;
610;"FORT-LUX ELETRICIDADE INDUSTRIAL LTDA.                                          ";"";"61018867000169";"";"";"";"";"";"";"";"";"";"";"";"";"";t;
611;"CANTON TECIDOS IMPORTACAO E EXPORTACAO LTDA.                                    ";"";"14041949000144";"";"";"";"";"";"";"";"";"";"";"";"";"";t;
612;"CASA DO PINTOR DE BRAGANCA LTDA - EPP                                           ";"";"04978171000140";"";"";"";"";"";"";"";"";"";"";"";"";"";t;
613;"MULTICOLOR SUZANO TINTAS LTDA - EPP.                                            ";"";"74463845000150";"";"";"";"";"";"";"";"";"";"";"";"";"";t;
614;"MEGATINTAS COMERCIO DE TINTAS LTDA                                              ";"";"11681887000147";"";"";"";"";"";"";"";"";"";"";"";"";"";t;
615;"ELCOR TINTAS EIRELI - EPP.                                                      ";"";"38841730000279";"";"";"";"";"";"";"";"";"";"";"";"";"";t;
616;"DELTA COMERCIAL LTDA. EPP                                                       ";"";"01675865000110";"";"";"";"";"";"";"";"";"";"";"";"";"";t;
617;"SUMARE Coml. e Distr. Ltda.                                                     ";"";"64998529000129";"";"";"";"";"";"";"";"";"";"";"";"";"";t;
618;"COMERCIAL MULTICORES COM. DE TINTAS LTDA. - ME                                  ";"";"08992938000147";"";"";"";"";"";"";"";"";"";"";"";"";"";t;
619;"NAUTICA TINTAS LTDA                                                             ";"";"21466671000201";"";"";"";"";"";"";"";"";"";"";"";"";"";f;
620;"Auto Pecas IMBE Ltda - ME.                                                      ";"";"66682097000178";"";"";"";"";"";"";"";"";"";"";"";"";"";t;
621;"R. F. POHL TINTAS E ACES. EIRELI - ME                                           ";"";"24765378000144";"";"";"";"";"";"";"";"";"";"";"";"";"";t;
622;"MARCIO RICARDO BARBOSA ME                                                       ";"";"14459312000172";"";"";"";"";"";"";"";"";"";"";"";"";"";t;
623;"PATRICIA CAMILA MENDES - ME                                                     ";"";"17766547000103";"";"";"";"";"";"";"";"";"";"";"";"";"";f;
624;"BRASOLV INDUSTRIA QUIMICA EIRELI ME                                             ";"";"05585169000174";"";"";"";"";"";"";"";"";"";"";"";"";"";t;
625;"APOIO TINTAS CENTER MATERIAIS P/CONSTRUCAO - EIRELI                             ";"";"23427849000141";"";"";"";"";"";"";"";"";"";"";"";"";"";t;
626;"CARDABA COMERCIAL LTDA.                                                         ";"";"53531992000140";"";"";"";"";"";"";"";"";"";"";"";"";"";t;
627;"AGRO HUMUS IND. E COM. FERTILIZANTES LTDA                                       ";"";"47943162000127";"";"";"";"";"";"";"";"";"";"";"";"";"";t;
628;"Clodoaldo Tintas                                                                ";"";"48031843000181";"";"";"";"";"";"";"";"";"";"";"";"";"";t;
629;"Bazar das Tintas (Bras)                                                         ";"";"67331538000826";"";"";"";"";"";"";"";"";"";"";"";"";"";t;
630;"CENTRAL DAS CORES COMERCIO DE TINTAS LTDA.                                      ";"";"07460989000165";"";"";"";"";"";"";"";"";"";"";"";"";"";t;
631;"XARP GERADORES COMP. ELETRO ELETRONICOS EIRELI - ME.                            ";"";"07015148000149";"";"";"";"";"";"";"";"";"";"";"";"";"";t;
632;"Albergaria Comercio de Tintas e Ferragens Ltda. - EPP.                          ";"";"03549954000146";"";"";"";"";"";"";"";"";"";"";"";"";"";t;
633;"CUNHA & CAPISTRANO LTDA - ME                                                    ";"";"21515859000103";"";"";"";"";"";"";"";"";"";"";"";"";"";t;
634;"CASA DA CERA E COMERCIO LTDA                                                    ";"";"14538825000179";"";"";"";"";"";"";"";"";"";"";"";"";"";t;
635;"CASA DE TINTAS IZUMI LTDA ME.                                                   ";"";"03903123000120";"";"";"";"";"";"";"";"";"";"";"";"";"";t;
636;"L.L. COMERCIAL DE TINTAS FRANCO DA ROCHA EIRELLI-ME                             ";"";"24711820000150";"";"";"";"";"";"";"";"";"";"";"";"";"";f;
637;"LAR DAS CORES COM.TINTAS MAT.CONST.LTDA                                         ";"";"21427053000163";"";"";"";"";"";"";"";"";"";"";"";"";"";t;
638;"CASA DO CHUVEIRO EIRELI - ME                                                    ";"";"14884196000139";"";"";"";"";"";"";"";"";"";"";"";"";"";t;
639;"ESCUDERO TINTAS LTDA. - FILIAL 04                                               ";"";"67870683000451";"";"";"";"";"";"";"";"";"";"";"";"";"";t;
641;"COMERCIAL DE TINTAS SR. DO BONFIM LTDA.                                         ";"";"08909074000157";"";"";"";"";"";"";"";"";"";"";"";"";"";t;
642;"APARECIDA A.DA SILVA LIMA COM.TINTAS EPP                                        ";"";"13085976000156";"";"";"";"";"";"";"";"";"";"";"";"";"";t;
644;"MAGIA DAS TINTAS COMERCIO DE TINTAS LTDA                                        ";"";"14910415000107";"";"";"";"";"";"";"";"";"";"";"";"";"";f;
645;"CIMAR Comercio de Tintas Hidr. Eletrica Ltda.                                   ";"";"00535373000167";"";"";"";"";"";"";"";"";"";"";"";"";"";t;
646;"NAGILA BEATRIZ CAROLA - ME                                                      ";"";"15385993000134";"";"";"";"";"";"";"";"";"";"";"";"";"";t;
647;"C.E. PRADO MOREIRA TINTAS - ME                                                  ";"";"24375510000101";"";"";"";"";"";"";"";"";"";"";"";"";"";f;
649;"GPI TINTAS LTDA - ME                                                            ";"";"24565309000197";"";"";"";"";"";"";"";"";"";"";"";"";"";f;
648;"CONSTRUDEC COMERCIO DE MATERIAIS E CONSTRUCAO LTDA - ME";"CONSTRUDEC";"03959793000169";"(11) 2919-1905";"danilo@construdec.com.br";"";"CONSTRUDEC";"";"";"03318-000";"Rua Serra de Bragança";"1335";"";"Vila Gomes Cardim";"São Paulo";"SP";f;
643;"GAMA DISTRIBUIDORA DE TINTAS LTDA";"GAMA DISTRIBUIDORA";"07.161.840/0001-85";"(11) 3361-3826";"jra.cont@uol.com.br";"";"GAMA";"";"";"08599-000";"Estrada de Santa Isabel";"4.999";"";"Jardim Nova Itaquá";"Itaquaquecetuba";"SP";t;
640;"ROBERTO KIYOSHI YAMASHIRO - ME";"ROBERTO KIYOSHI YAMASHIRO - ME";"08.219.502/0001-10";"(11) 4472-8968";"perbacontabil@terra.com.br";"";"YAMASHIRO";"";"";"09230-701";"Avenida Martim Francisco";"180";"";"Jardim Utinga";"Santo André";"SP";t;
